<svg width="32" height="17" viewBox="0 0 32 17" fill="none" xmlns="http://www.w3.org/2000/svg">
<path d="M13.3334 5.07459C12.1254 3.42392 10.2027 2.33325 8.00004 2.33325V2.33325C4.31871 2.33325 1.33337 5.31859 1.33337 8.99992V8.99992C1.33337 12.6813 4.31871 15.6666 8.00004 15.6666V15.6666V15.6666C10.4814 15.6666 12.7814 14.3639 14.0574 12.2373L16 8.99992L17.9427 5.76259C19.2187 3.63592 21.5187 2.33325 24 2.33325V2.33325V2.33325C27.6814 2.33325 30.6667 5.31859 30.6667 8.99992V8.99992C30.6667 12.6813 27.6814 15.6666 24 15.6666V15.6666C21.7974 15.6666 19.8747 14.5759 18.6667 12.9253" stroke="#E8331A" stroke-width="2" stroke-linecap="round" stroke-linejoin="round"/>
<path d="M13.24 1.03735L13.9346 4.97602L9.99597 5.67069" stroke="#E8331A" stroke-width="2" stroke-linecap="round" stroke-linejoin="round"/>
</svg>
