<svg width="88" height="52" viewBox="0 0 88 52" fill="none" xmlns="http://www.w3.org/2000/svg">
<path fill-rule="evenodd" clip-rule="evenodd" d="M5.29913 8.43242C8.82868 3.63897 14.1977 0.495117 21.4641 0.495117C28.7304 0.495117 34.0995 3.63897 37.629 8.43242C41.1397 13.2003 42.8061 19.5605 42.8061 26.0131C42.8061 32.4657 41.1398 38.8433 37.6298 43.6287C34.1011 48.4398 28.7322 51.6031 21.4641 51.6031C14.196 51.6031 8.82704 48.4398 5.2983 43.6287C1.78836 38.8433 0.12207 32.4657 0.12207 26.0131C0.12207 19.5605 1.78842 13.2003 5.29913 8.43242ZM6.50701 9.32182C3.23172 13.77 1.62207 19.7938 1.62207 26.0131C1.62207 32.2325 3.23178 38.275 6.50784 42.7415C9.7651 47.1825 14.6922 50.1031 21.4641 50.1031C28.236 50.1031 33.163 47.1825 36.4203 42.7415C39.6964 38.275 41.3061 32.2325 41.3061 26.0131C41.3061 19.7938 39.6964 13.77 36.4211 9.32182C33.1647 4.89926 28.2377 1.99512 21.4641 1.99512C14.6904 1.99512 9.76346 4.89926 6.50701 9.32182ZM63.3107 1.21512H81.6878V29.5831H87.5198V41.9551H81.6878V50.7391H67.7318V41.9551H44.7638V31.3448L63.3107 1.21512ZM64.1488 2.71512L46.2638 31.7695V40.4551H69.2318V49.2391H80.1878V40.4551H86.0198V31.0831H80.1878V2.71512H64.1488ZM69.2318 10.1427V31.0831H56.1869L69.2318 10.1427ZM15.9316 16.2722C14.7244 18.5022 14.1501 21.8085 14.1501 26.0131C14.1501 30.2175 14.7243 33.543 15.9327 35.7921C16.5311 36.9057 17.2759 37.7388 18.1706 38.296C19.0628 38.8517 20.1458 39.1591 21.4641 39.1591C22.7824 39.1591 23.8653 38.8517 24.7576 38.296C25.6523 37.7388 26.397 36.9057 26.9954 35.7921C28.2039 33.543 28.7781 30.2175 28.7781 26.0131C28.7781 21.8085 28.2038 18.5022 26.9965 16.2722C26.399 15.1683 25.655 14.344 24.7606 13.7929C23.8682 13.2429 22.7842 12.9391 21.4641 12.9391C20.1439 12.9391 19.06 13.2429 18.1675 13.7929C17.2731 14.344 16.5292 15.1683 15.9316 16.2722ZM17.3806 12.5159C18.5402 11.8013 19.9042 11.4391 21.4641 11.4391C23.0239 11.4391 24.388 11.8013 25.5475 12.5159C26.7051 13.2292 27.6172 14.2679 28.3156 15.5581C29.7004 18.116 30.2781 21.7218 30.2781 26.0131C30.2781 30.3048 29.7003 33.9272 28.3167 36.5021C27.6191 37.8005 26.7079 38.8485 25.5506 39.5692C24.3908 40.2915 23.0258 40.6591 21.4641 40.6591C19.9024 40.6591 18.5373 40.2915 17.3776 39.5692C16.2203 38.8485 15.309 37.8005 14.6114 36.5021C13.2279 33.9272 12.6501 30.3048 12.6501 26.0131C12.6501 21.7218 13.2278 18.116 14.6125 15.5581C15.311 14.2679 16.223 13.2292 17.3806 12.5159ZM58.8886 29.5831H67.7318V15.3875L58.8886 29.5831Z" fill="url(#paint0_linear)"/>
<defs>
<linearGradient id="paint0_linear" x1="44.0001" y1="-8.01086" x2="-6.7017" y2="71.1937" gradientUnits="userSpaceOnUse">
<stop stop-color="#424449"/>
<stop offset="1" stop-color="#424449" stop-opacity="0"/>
</linearGradient>
</defs>
</svg>
