<svg width="48" height="48" viewBox="0 0 48 48" fill="none" xmlns="http://www.w3.org/2000/svg">
<circle cx="24" cy="24" r="24" transform="rotate(90 24 24)" fill="url(#paint0_linear)"/>
<path d="M31.3044 25L16.6957 25" stroke="#202227" stroke-width="2" stroke-linecap="round" stroke-linejoin="round"/>
<path d="M26.0871 30.2175L31.3044 25.0001" stroke="#202227" stroke-width="2" stroke-linecap="round" stroke-linejoin="round"/>
<path d="M26.0871 19.7826L31.3044 25" stroke="#202227" stroke-width="2" stroke-linecap="round" stroke-linejoin="round"/>
<defs>
<linearGradient id="paint0_linear" x1="48" y1="-7.50002" x2="-17.7985" y2="-4.35232" gradientUnits="userSpaceOnUse">
<stop stop-color="#FF9D57"/>
<stop offset="1" stop-color="#F94144"/>
</linearGradient>
</defs>
</svg>
