<svg width="20" height="25" viewBox="0 0 20 25" fill="none" xmlns="http://www.w3.org/2000/svg">
<path opacity="0.8" d="M1 14.8022L10.1079 22.9998L19.2158 14.8022" stroke="white" stroke-width="2"/>
<path opacity="0.5" d="M1 1L10.1079 9.19758L19.2158 1" stroke="white" stroke-width="2"/>
</svg>
