<svg width="331" height="64" viewBox="0 0 331 64" fill="none" xmlns="http://www.w3.org/2000/svg">
<rect x="174.5" y="0.5" width="156" height="63" stroke="white"/>
<path fill-rule="evenodd" clip-rule="evenodd" d="M238.535 35.6484V37.1582H242.132C242.076 37.8694 241.782 38.5404 241.299 39.0623C240.572 39.809 239.565 40.2112 238.527 40.1695C236.32 40.1695 234.531 38.3669 234.531 36.1433C234.531 33.9196 236.32 32.117 238.527 32.117C239.541 32.1004 240.52 32.4895 241.249 33.1991L242.307 32.1338C241.312 31.1187 239.951 30.5529 238.535 30.5652C236.52 30.4862 234.622 31.5246 233.591 33.2713C232.56 35.018 232.56 37.1931 233.591 38.9398C234.622 40.6865 236.52 41.7248 238.535 41.6458C239.977 41.7115 241.377 41.1456 242.373 40.094C243.246 39.1285 243.711 37.8593 243.672 36.5543C243.675 36.2364 243.647 35.9189 243.589 35.6064L238.535 35.6484ZM247.769 34.5496C245.815 34.5542 244.235 36.1523 244.238 38.1201C244.242 40.0878 245.827 41.6809 247.78 41.6794C249.733 41.6778 251.315 40.0822 251.315 38.1145C251.329 37.1619 250.958 36.2445 250.288 35.5725C249.618 34.9004 248.706 34.5313 247.76 34.5496H247.769ZM251.998 38.1256C251.992 36.159 253.568 34.5588 255.52 34.5496C256.465 34.5313 257.378 34.9004 258.048 35.5725C258.718 36.2445 259.089 37.1619 259.075 38.1145C259.075 40.0811 257.494 41.6763 255.542 41.6793C253.59 41.6824 252.004 40.0923 251.998 38.1256ZM253.432 39.0527C253.812 39.8545 254.64 40.3406 255.52 40.2786C256.072 40.2657 256.596 40.0286 256.972 39.6212C257.348 39.2137 257.545 38.6704 257.518 38.1145C257.516 37.2259 256.975 36.429 256.154 36.1048C255.332 35.7807 254.398 35.9952 253.797 36.6458C253.196 37.2964 253.052 38.2509 253.432 39.0527ZM245.675 39.0592C246.058 39.8605 246.888 40.3442 247.769 40.2787H247.76C248.312 40.2658 248.836 40.0287 249.212 39.6212C249.589 39.2138 249.786 38.6704 249.758 38.1146C249.756 37.2253 249.214 36.428 248.392 36.1046C247.569 35.7811 246.634 35.9974 246.035 36.6498C245.435 37.3022 245.292 38.2579 245.675 39.0592ZM273.229 34.5496C274.609 34.6008 275.815 35.5052 276.259 36.8228L276.434 37.2002L271.697 39.1714C271.994 39.8527 272.674 40.2818 273.412 40.2535C274.125 40.2553 274.786 39.8793 275.152 39.2637L276.359 40.1025C275.702 41.0935 274.595 41.6858 273.412 41.6794C272.472 41.6933 271.566 41.3213 270.904 40.649C270.241 39.9767 269.878 39.0618 269.899 38.1145C269.841 37.1889 270.166 36.2806 270.797 35.6053C271.428 34.9299 272.308 34.5478 273.229 34.5496ZM271.431 38.014C271.396 37.4899 271.573 36.974 271.921 36.5827C272.269 36.1913 272.758 35.9574 273.279 35.9338C273.828 35.8973 274.345 36.1944 274.594 36.6887L271.431 38.014ZM269.141 41.4697H267.584V30.9847H269.141V41.4697ZM265.036 35.3465H264.978C264.503 34.8119 263.825 34.5067 263.113 34.5077C261.223 34.6 259.738 36.1706 259.738 38.0768C259.738 39.983 261.223 41.5536 263.113 41.6459C263.827 41.658 264.51 41.3509 264.978 40.8071H265.028V41.3188C265.028 42.686 264.304 43.4158 263.138 43.4158C262.344 43.397 261.64 42.8966 261.356 42.1492L259.999 42.7196C260.522 44.0002 261.764 44.8332 263.138 44.8249C264.961 44.8249 266.468 43.7429 266.468 41.1091V34.7593H265.036V35.3465ZM263.252 40.2785L263.255 40.2788H263.246L263.252 40.2785ZM264.655 39.6059C264.298 40.0132 263.791 40.2561 263.252 40.2785C262.14 40.1785 261.287 39.2397 261.287 38.1147C261.287 36.9887 262.141 36.0494 263.255 35.9505C263.792 35.9784 264.297 36.2238 264.652 36.6312C265.008 37.0387 265.186 37.5736 265.145 38.1147C265.19 38.6582 265.014 39.1971 264.655 39.6059ZM283.553 30.9847H279.831V41.4697H281.388V37.4938H283.561C284.771 37.5813 285.927 36.9809 286.559 35.9378C287.19 34.8947 287.19 33.5837 286.559 32.5407C285.927 31.4976 284.771 30.8971 283.561 30.9847H283.553ZM281.38 36.0175H283.553L283.586 36.0427C284.572 36.0427 285.372 35.2371 285.372 34.2434C285.372 33.2497 284.572 32.4442 283.586 32.4442H281.38V36.0175ZM293.153 34.5077C291.994 34.438 290.905 35.0673 290.38 36.1098L291.762 36.6886C292.041 36.1716 292.596 35.869 293.178 35.9169C293.577 35.8699 293.978 35.9865 294.291 36.2405C294.604 36.4944 294.803 36.8644 294.843 37.2674V37.3764C294.343 37.1097 293.785 36.9714 293.219 36.9738C291.729 36.9738 290.222 37.8126 290.222 39.3308C290.252 39.9849 290.543 40.599 291.029 41.0334C291.515 41.4679 292.155 41.6858 292.803 41.6376C293.602 41.6953 294.368 41.3093 294.801 40.631H294.851V41.4698H296.35V37.4352C296.35 35.5982 294.968 34.5329 293.194 34.5329L293.153 34.5077ZM291.745 39.3644C291.745 39.9935 292.453 40.2535 292.961 40.2535L293.003 40.2787C293.94 40.2557 294.718 39.5401 294.826 38.6011C294.394 38.3582 293.905 38.2365 293.411 38.2488C292.628 38.2488 291.745 38.5256 291.745 39.3644ZM301.811 34.7593L300.029 39.3056H299.98L298.131 34.7593H296.466L299.239 41.1174L297.657 44.6488H299.28L303.543 34.7593H301.811ZM289.373 41.4697H287.816V30.9847H289.373V41.4697Z" fill="white"/>
<path d="M233.442 25.7866H235.266C236.922 25.7866 238.002 24.6426 238.002 23.1226C238.002 21.6106 236.922 20.4506 235.266 20.4506H233.442V25.7866ZM234.106 25.1946V21.0426H235.266C236.586 21.0426 237.314 21.9706 237.314 23.1226C237.314 24.2666 236.562 25.1946 235.266 25.1946H234.106ZM240.708 25.8826C241.884 25.8826 242.62 24.9706 242.62 23.8506C242.62 22.7306 241.884 21.8266 240.708 21.8266C239.532 21.8266 238.796 22.7306 238.796 23.8506C238.796 24.9706 239.532 25.8826 240.708 25.8826ZM240.708 25.3466C239.884 25.3466 239.42 24.6426 239.42 23.8506C239.42 23.0666 239.884 22.3626 240.708 22.3626C241.532 22.3626 241.988 23.0666 241.988 23.8506C241.988 24.6426 241.532 25.3466 240.708 25.3466ZM246.942 25.7866H247.542L248.774 21.9226H248.15L247.206 25.0026L246.19 21.9226H245.678L244.662 25.0026L243.718 21.9226H243.094L244.326 25.7866H244.926L245.934 22.6826L246.942 25.7866ZM252.081 25.7866H252.681V23.0746C252.681 22.2346 252.257 21.8266 251.449 21.8266C250.873 21.8266 250.345 22.1626 250.073 22.4826V21.9226H249.473V25.7866H250.073V22.9626C250.297 22.6506 250.745 22.3626 251.217 22.3626C251.737 22.3626 252.081 22.5786 252.081 23.2586V25.7866ZM253.879 25.7866H254.479V20.4506H253.879V25.7866ZM257.364 25.8826C258.54 25.8826 259.276 24.9706 259.276 23.8506C259.276 22.7306 258.54 21.8266 257.364 21.8266C256.188 21.8266 255.452 22.7306 255.452 23.8506C255.452 24.9706 256.188 25.8826 257.364 25.8826ZM257.364 25.3466C256.54 25.3466 256.076 24.6426 256.076 23.8506C256.076 23.0666 256.54 22.3626 257.364 22.3626C258.188 22.3626 258.644 23.0666 258.644 23.8506C258.644 24.6426 258.188 25.3466 257.364 25.3466ZM262.67 25.7866H263.27V23.1306C263.27 22.1946 262.59 21.8266 261.774 21.8266C261.142 21.8266 260.646 22.0346 260.23 22.4666L260.51 22.8826C260.854 22.5146 261.23 22.3466 261.694 22.3466C262.254 22.3466 262.67 22.6426 262.67 23.1626V23.8586C262.358 23.4986 261.918 23.3306 261.39 23.3306C260.734 23.3306 260.038 23.7386 260.038 24.6026C260.038 25.4426 260.734 25.8826 261.39 25.8826C261.91 25.8826 262.35 25.6986 262.67 25.3466V25.7866ZM262.67 24.9706C262.438 25.2906 262.03 25.4506 261.606 25.4506C261.046 25.4506 260.654 25.0986 260.654 24.6106C260.654 24.1146 261.046 23.7626 261.606 23.7626C262.03 23.7626 262.438 23.9226 262.67 24.2426V24.9706ZM267.273 25.7866H267.873V20.4506H267.273V22.5066C266.961 22.0826 266.489 21.8266 265.969 21.8266C264.953 21.8266 264.249 22.6266 264.249 23.8586C264.249 25.1146 264.961 25.8826 265.969 25.8826C266.513 25.8826 266.985 25.6026 267.273 25.2106V25.7866ZM267.273 24.7386C267.057 25.0746 266.593 25.3466 266.113 25.3466C265.337 25.3466 264.873 24.7146 264.873 23.8586C264.873 23.0026 265.337 22.3626 266.113 22.3626C266.593 22.3626 267.057 22.6506 267.273 22.9866V24.7386ZM272.169 25.7866H272.825L274.433 21.9226H273.777L272.497 25.0906L271.209 21.9226H270.561L272.169 25.7866ZM275.355 21.2746C275.579 21.2746 275.763 21.0906 275.763 20.8666C275.763 20.6426 275.579 20.4666 275.355 20.4666C275.139 20.4666 274.955 20.6426 274.955 20.8666C274.955 21.0906 275.139 21.2746 275.355 21.2746ZM275.059 25.7866H275.659V21.9226H275.059V25.7866ZM279.272 25.7866H279.872V23.1306C279.872 22.1946 279.192 21.8266 278.376 21.8266C277.744 21.8266 277.248 22.0346 276.832 22.4666L277.112 22.8826C277.456 22.5146 277.832 22.3466 278.296 22.3466C278.856 22.3466 279.272 22.6426 279.272 23.1626V23.8586C278.96 23.4986 278.52 23.3306 277.992 23.3306C277.336 23.3306 276.64 23.7386 276.64 24.6026C276.64 25.4426 277.336 25.8826 277.992 25.8826C278.512 25.8826 278.952 25.6986 279.272 25.3466V25.7866ZM279.272 24.9706C279.04 25.2906 278.632 25.4506 278.208 25.4506C277.648 25.4506 277.256 25.0986 277.256 24.6106C277.256 24.1146 277.648 23.7626 278.208 23.7626C278.632 23.7626 279.04 23.9226 279.272 24.2426V24.9706Z" fill="white"/>
<path fill-rule="evenodd" clip-rule="evenodd" d="M201.361 20.8972V41.4155C201.361 42.1296 201.774 42.7471 202.374 43.0417L214.248 31.1528L202.379 19.2686C201.776 19.5623 201.361 20.1812 201.361 20.8972ZM205.035 42.4254L218.013 34.923L215.271 32.1769L205.035 42.4254ZM222.047 29.7179C222.479 30.0487 222.757 30.57 222.757 31.1564C222.757 31.7339 222.487 32.2482 222.067 32.5796L219.31 34.1733L216.293 31.1529L219.308 28.1343L222.047 29.7179ZM218.011 27.3846L205.043 19.8878L215.271 30.1286L218.011 27.3846Z" fill="white"/>
<rect x="0.5" y="0.5" width="156" height="63" stroke="white"/>
<g clip-path="url(#clip0)">
<path d="M58.79 26.2109H60.614C62.27 26.2109 63.35 25.0669 63.35 23.5469C63.35 22.0349 62.27 20.8749 60.614 20.8749H58.79V26.2109ZM59.454 25.6189V21.4669H60.614C61.934 21.4669 62.662 22.3949 62.662 23.5469C62.662 24.6909 61.91 25.6189 60.614 25.6189H59.454ZM66.0556 26.3069C67.2316 26.3069 67.9676 25.3949 67.9676 24.2749C67.9676 23.1549 67.2316 22.2509 66.0556 22.2509C64.8796 22.2509 64.1436 23.1549 64.1436 24.2749C64.1436 25.3949 64.8796 26.3069 66.0556 26.3069ZM66.0556 25.7709C65.2316 25.7709 64.7676 25.0669 64.7676 24.2749C64.7676 23.4909 65.2316 22.7869 66.0556 22.7869C66.8796 22.7869 67.3356 23.4909 67.3356 24.2749C67.3356 25.0669 66.8796 25.7709 66.0556 25.7709ZM72.2897 26.2109H72.8897L74.1217 22.3469H73.4977L72.5537 25.4269L71.5377 22.3469H71.0257L70.0097 25.4269L69.0657 22.3469H68.4417L69.6737 26.2109H70.2737L71.2817 23.1069L72.2897 26.2109ZM77.4287 26.2109H78.0287V23.4989C78.0287 22.6589 77.6047 22.2509 76.7967 22.2509C76.2207 22.2509 75.6927 22.5869 75.4207 22.9069V22.3469H74.8207V26.2109H75.4207V23.3869C75.6447 23.0749 76.0927 22.7869 76.5647 22.7869C77.0847 22.7869 77.4287 23.0029 77.4287 23.6829V26.2109ZM79.227 26.2109H79.827V20.8749H79.227V26.2109ZM82.7118 26.3069C83.8878 26.3069 84.6238 25.3949 84.6238 24.2749C84.6238 23.1549 83.8878 22.2509 82.7118 22.2509C81.5358 22.2509 80.7998 23.1549 80.7998 24.2749C80.7998 25.3949 81.5358 26.3069 82.7118 26.3069ZM82.7118 25.7709C81.8878 25.7709 81.4238 25.0669 81.4238 24.2749C81.4238 23.4909 81.8878 22.7869 82.7118 22.7869C83.5358 22.7869 83.9918 23.4909 83.9918 24.2749C83.9918 25.0669 83.5358 25.7709 82.7118 25.7709ZM88.018 26.2109H88.618V23.5549C88.618 22.6189 87.938 22.2509 87.122 22.2509C86.49 22.2509 85.994 22.4589 85.578 22.8909L85.858 23.3069C86.202 22.9389 86.578 22.7709 87.042 22.7709C87.602 22.7709 88.018 23.0669 88.018 23.5869V24.2829C87.706 23.9229 87.266 23.7549 86.738 23.7549C86.082 23.7549 85.386 24.1629 85.386 25.0269C85.386 25.8669 86.082 26.3069 86.738 26.3069C87.258 26.3069 87.698 26.1229 88.018 25.7709V26.2109ZM88.018 25.3949C87.786 25.7149 87.378 25.8749 86.954 25.8749C86.394 25.8749 86.002 25.5229 86.002 25.0349C86.002 24.5389 86.394 24.1869 86.954 24.1869C87.378 24.1869 87.786 24.3469 88.018 24.6669V25.3949ZM92.6207 26.2109H93.2207V20.8749H92.6207V22.9309C92.3087 22.5069 91.8367 22.2509 91.3167 22.2509C90.3007 22.2509 89.5967 23.0509 89.5967 24.2829C89.5967 25.5389 90.3087 26.3069 91.3167 26.3069C91.8607 26.3069 92.3327 26.0269 92.6207 25.6349V26.2109ZM92.6207 25.1629C92.4047 25.4989 91.9407 25.7709 91.4607 25.7709C90.6847 25.7709 90.2207 25.1389 90.2207 24.2829C90.2207 23.4269 90.6847 22.7869 91.4607 22.7869C91.9407 22.7869 92.4047 23.0749 92.6207 23.4109V25.1629ZM97.5168 26.2109H98.1728L99.7808 22.3469H99.1248L97.8448 25.5149L96.5568 22.3469H95.9088L97.5168 26.2109ZM100.703 21.6989C100.927 21.6989 101.111 21.5149 101.111 21.2909C101.111 21.0669 100.927 20.8909 100.703 20.8909C100.487 20.8909 100.303 21.0669 100.303 21.2909C100.303 21.5149 100.487 21.6989 100.703 21.6989ZM100.407 26.2109H101.007V22.3469H100.407V26.2109ZM104.62 26.2109H105.22V23.5549C105.22 22.6189 104.54 22.2509 103.724 22.2509C103.092 22.2509 102.596 22.4589 102.18 22.8909L102.46 23.3069C102.804 22.9389 103.18 22.7709 103.644 22.7709C104.204 22.7709 104.62 23.0669 104.62 23.5869V24.2829C104.308 23.9229 103.868 23.7549 103.34 23.7549C102.684 23.7549 101.988 24.1629 101.988 25.0269C101.988 25.8669 102.684 26.3069 103.34 26.3069C103.86 26.3069 104.3 26.1229 104.62 25.7709V26.2109ZM104.62 25.3949C104.388 25.7149 103.98 25.8749 103.556 25.8749C102.996 25.8749 102.604 25.5229 102.604 25.0349C102.604 24.5389 102.996 24.1869 103.556 24.1869C103.98 24.1869 104.388 24.3469 104.62 24.6669V25.3949Z" fill="white"/>
<path fill-rule="evenodd" clip-rule="evenodd" d="M96.1314 41.1705C94.5654 41.1705 93.4194 40.4085 93.2874 39.2479L91.465 39.2478C91.5801 41.3646 93.3613 42.7037 95.9995 42.7037C98.8191 42.7037 100.592 41.3324 100.592 39.1429C100.592 37.4311 99.5778 36.4666 97.1371 35.8987L95.8264 35.5821C94.2931 35.2094 93.6663 34.7226 93.6663 33.8952C93.6663 32.857 94.6477 32.1438 96.0818 32.1438C97.516 32.1438 98.4973 32.8487 98.6049 34.0166H100.402C100.344 31.9974 98.6208 30.6105 96.1071 30.6105C93.5672 30.6105 91.7785 31.9974 91.7785 34.0166C91.7785 35.6475 92.7926 36.6525 94.977 37.1716L96.5187 37.537C98.0604 37.9097 98.7116 38.4536 98.7116 39.362C98.7116 40.4084 97.632 41.1705 96.1314 41.1705ZM65.1153 39.3455H60.5808L59.4919 42.5087H57.5713L61.8662 30.8056H63.8617L68.1567 42.5087H66.2033L65.1153 39.3455ZM61.0504 37.8858H64.6447L62.8729 32.7521H62.8233L61.0504 37.8858ZM73.8128 42.5979C75.9897 42.5979 77.4323 40.8944 77.4323 38.2429C77.4323 35.5987 75.9813 33.8869 73.78 33.8869C72.6474 33.851 71.5863 34.4305 71.0184 35.3953H70.9857V33.9762H69.2624V45.3313H71.0427V41.1051H71.0839C71.6276 42.076 72.6875 42.6558 73.8128 42.5979ZM75.6023 38.2429C75.6023 36.5155 74.6949 35.3798 73.3103 35.3798C71.9501 35.3798 71.0351 36.5394 71.0351 38.2429C71.0351 39.9621 71.9501 41.1135 73.3103 41.1135C74.6949 41.1135 75.6023 39.9861 75.6023 38.2429ZM83.3588 42.5979C85.5358 42.5979 86.9783 40.8943 86.9783 38.2429C86.9783 35.5987 85.5273 33.8869 83.3261 33.8869C82.1934 33.8509 81.1323 34.4305 80.5644 35.3953H80.5317V33.9762H78.8084V45.3313H80.5887V41.1051H80.6299C81.1737 42.076 82.2336 42.6558 83.3588 42.5979ZM85.1484 38.2429C85.1484 36.5155 84.2409 35.3798 82.8564 35.3798C81.4961 35.3798 80.5812 36.5394 80.5812 38.2429C80.5812 39.9621 81.4961 41.1135 82.8564 41.1135C84.2409 41.1135 85.1484 39.9861 85.1484 38.2429ZM104.434 31.957V33.9762H106.083V35.3632H104.434V40.067C104.434 40.7978 104.764 41.1383 105.489 41.1383C105.685 41.135 105.881 41.1214 106.075 41.0978V42.4765C105.749 42.5364 105.418 42.5635 105.086 42.5574C103.33 42.5574 102.645 41.9086 102.645 40.2538V35.3632H101.384V33.9762H102.645V31.957H104.434ZM111.152 33.8713C108.646 33.8713 107.039 35.5582 107.039 38.2429C107.039 40.9348 108.63 42.6145 111.152 42.6145C113.675 42.6145 115.266 40.9349 115.266 38.2429C115.266 35.5582 113.667 33.8713 111.152 33.8713ZM113.452 38.243C113.452 36.4014 112.595 35.3145 111.152 35.3145C109.709 35.3145 108.853 36.4097 108.853 38.243C108.853 40.0919 109.709 41.1706 111.152 41.1706C112.595 41.1706 113.452 40.0919 113.452 38.243H113.452ZM118.432 33.9761H116.734L116.734 42.5085H118.514V37.4476C118.455 36.9356 118.626 36.4237 118.983 36.0463C119.34 35.6688 119.846 35.4636 120.37 35.4845C120.64 35.4767 120.91 35.5125 121.169 35.5904V33.9522C120.969 33.908 120.765 33.8861 120.56 33.8868C119.581 33.85 118.71 34.4935 118.473 35.4284H118.432V33.9761ZM129.378 40.0026C129.138 41.5515 127.605 42.6145 125.643 42.6145C123.12 42.6145 121.554 40.9514 121.554 38.2834C121.554 35.607 123.128 33.8713 125.568 33.8713C127.968 33.8713 129.477 35.4929 129.477 38.08V38.68H123.351V38.7859C123.294 39.4211 123.517 40.0499 123.963 40.5123C124.41 40.9747 125.037 41.2261 125.684 41.2027C126.548 41.2823 127.363 40.7943 127.687 40.0025L129.378 40.0026ZM127.696 37.4559H123.36C123.358 36.8799 123.591 36.3271 124.005 35.9204C124.42 35.5138 124.983 35.2869 125.568 35.2904C126.149 35.2781 126.709 35.5048 127.113 35.9159C127.517 36.327 127.728 36.8851 127.696 37.4559Z" fill="white"/>
<path fill-rule="evenodd" clip-rule="evenodd" d="M42.31 20.3693C41.0529 20.4218 39.5297 21.2041 38.6282 22.2558C37.8178 23.1898 37.1104 24.6804 37.3011 26.1097C38.7046 26.2191 40.1347 25.3994 41.0084 24.3472C41.8803 23.293 42.4706 21.8301 42.31 20.3693ZM41.9546 45.2429C43.6579 45.2113 44.7366 43.7022 45.7795 42.1839C46.9223 40.5208 47.4269 38.9082 47.5022 38.6678C47.5064 38.6544 47.5092 38.6453 47.5108 38.6406C47.51 38.6403 47.5079 38.6394 47.5045 38.6381C47.3406 38.5717 44.1881 37.2948 44.1567 33.604C44.1259 30.5562 46.5659 29.04 46.8345 28.8731C46.8438 28.8673 46.8505 28.8631 46.8544 28.8606C45.3858 26.7211 43.099 26.4277 42.2842 26.3942C41.094 26.2743 39.9393 26.7275 38.9959 27.0978C38.3964 27.3331 37.8821 27.535 37.4983 27.535C37.0711 27.535 36.5428 27.3261 35.9499 27.0917C35.1738 26.7849 34.2871 26.4343 33.3717 26.4511C31.2514 26.4827 29.2948 27.6803 28.2029 29.5732C25.9978 33.3848 27.6374 39.0326 29.7856 42.1231C30.8371 43.6346 32.0874 45.3358 33.7317 45.2745C34.4659 45.2452 34.9884 45.0235 35.5287 44.7943C36.1532 44.5294 36.8016 44.2544 37.8282 44.2544C38.8059 44.2544 39.4242 44.5209 40.019 44.7773C40.5879 45.0225 41.1351 45.2583 41.9546 45.2429Z" fill="white"/>
</g>
<defs>
<clipPath id="clip0">
<rect width="103.171" height="26.3415" fill="white" transform="translate(27 19)"/>
</clipPath>
</defs>
</svg>
