<svg width="16" height="16" viewBox="0 0 16 16" fill="none" xmlns="http://www.w3.org/2000/svg">
<g opacity="0.5">
<path d="M5.70461 2.45822C8.76527 1.19022 12.2739 2.64422 13.5419 5.70489C14.8099 8.76555 13.3559 12.2742 10.2953 13.5422C7.23461 14.8102 3.72594 13.3562 2.45794 10.2956C1.19061 7.23489 2.64394 3.72622 5.70461 2.45822" stroke="white" stroke-width="1.5" stroke-linecap="round" stroke-linejoin="round"/>
<path d="M7.81201 5.32373V8.4244L10.2493 9.9104" stroke="white" stroke-width="1.5" stroke-linecap="round" stroke-linejoin="round"/>
</g>
</svg>
