<svg width="19" height="19" viewBox="0 0 19 19" fill="none" xmlns="http://www.w3.org/2000/svg">
<path d="M16.4446 8.47831V3.40315C16.4446 2.46883 15.6872 1.71143 14.7528 1.71143H3.75666C2.82235 1.71143 2.06494 2.46883 2.06494 3.40315V13.5535C2.06494 14.4878 2.82235 15.2452 3.75666 15.2452H8.83183" stroke="url(#paint0_linear)" stroke-width="1.12472" stroke-linecap="round" stroke-linejoin="round"/>
<path d="M7.35156 8.47811H9.67768" stroke="url(#paint1_linear)" stroke-width="1.12472" stroke-linecap="round" stroke-linejoin="round"/>
<path d="M7.35156 5.20076H13.0611" stroke="url(#paint2_linear)" stroke-width="1.12472" stroke-linecap="round" stroke-linejoin="round"/>
<path d="M4.70833 8.58384C4.76672 8.58384 4.81406 8.5365 4.81406 8.47811C4.81406 8.41971 4.76672 8.37237 4.70833 8.37237C4.64994 8.37237 4.6026 8.41971 4.6026 8.47811C4.6026 8.5365 4.64994 8.58384 4.70833 8.58384" stroke="url(#paint3_linear)" stroke-width="1.12472" stroke-linecap="round" stroke-linejoin="round"/>
<path d="M4.70833 5.30649C4.76672 5.30649 4.81406 5.25916 4.81406 5.20076C4.81406 5.14237 4.76672 5.09503 4.70833 5.09503C4.64994 5.09503 4.6026 5.14237 4.6026 5.20076C4.6026 5.25916 4.64994 5.30649 4.70833 5.30649" stroke="url(#paint4_linear)" stroke-width="1.12472" stroke-linecap="round" stroke-linejoin="round"/>
<path d="M11.3905 13.4872V15.4538C11.3904 15.8862 11.6348 16.2815 12.0215 16.4748L12.4631 16.6955C13.1058 17.0167 13.8622 17.0167 14.505 16.6955L14.9465 16.4748C15.3333 16.2815 15.5776 15.8862 15.5775 15.4538V13.4872M17.2904 12.2394V13.762M10.027 12.8056L12.6381 14.1099C13.1723 14.3764 13.8007 14.3764 14.3349 14.1099L16.9436 12.8056C17.158 12.6987 17.2934 12.4797 17.2934 12.2402C17.2934 12.0006 17.158 11.7816 16.9436 11.6747L14.3298 10.3704C13.7958 10.1031 13.1671 10.1031 12.633 10.3704L10.0244 11.6747C9.81025 11.7821 9.67525 12.0014 9.67578 12.2409C9.67632 12.4805 9.81231 12.6992 10.027 12.8056Z" stroke="url(#paint5_linear)" stroke-width="1.12472" stroke-linecap="round" stroke-linejoin="round"/>
<defs>
<linearGradient id="paint0_linear" x1="16.4446" y1="-0.403231" x2="-3.26126" y2="0.598384" gradientUnits="userSpaceOnUse">
<stop stop-color="#FF9D57"/>
<stop offset="1" stop-color="#F94144"/>
</linearGradient>
<linearGradient id="paint1_linear" x1="9.67768" y1="7.92301" x2="6.53611" y2="8.3363" gradientUnits="userSpaceOnUse">
<stop stop-color="#FF9D57"/>
<stop offset="1" stop-color="#F94144"/>
</linearGradient>
<linearGradient id="paint2_linear" x1="13.0611" y1="4.64567" x2="5.95726" y2="6.93957" gradientUnits="userSpaceOnUse">
<stop stop-color="#FF9D57"/>
<stop offset="1" stop-color="#F94144"/>
</linearGradient>
<linearGradient id="paint3_linear" x1="5.13126" y1="7.92301" x2="3.97175" y2="7.97848" gradientUnits="userSpaceOnUse">
<stop stop-color="#FF9D57"/>
<stop offset="1" stop-color="#F94144"/>
</linearGradient>
<linearGradient id="paint4_linear" x1="5.13126" y1="4.64567" x2="3.97175" y2="4.70114" gradientUnits="userSpaceOnUse">
<stop stop-color="#FF9D57"/>
<stop offset="1" stop-color="#F94144"/>
</linearGradient>
<linearGradient id="paint5_linear" x1="17.2934" y1="9.11265" x2="6.8575" y2="9.67469" gradientUnits="userSpaceOnUse">
<stop stop-color="#FF9D57"/>
<stop offset="1" stop-color="#F94144"/>
</linearGradient>
</defs>
</svg>
