<svg width="100" height="4" viewBox="0 0 100 4" fill="none" xmlns="http://www.w3.org/2000/svg">
<path fill-rule="evenodd" clip-rule="evenodd" d="M0 0H4V4H0V0ZM12 0H16V4H12V0ZM28 0H24V4H28V0ZM36 0H40V4H36V0ZM52 0H48V4H52V0ZM60 0H64V4H60V0ZM76 0H72V4H76V0ZM84 0H88V4H84V0ZM100 0H96V4H100V0Z" fill="url(#paint0_linear)"/>
<defs>
<linearGradient id="paint0_linear" x1="100" y1="-0.625002" x2="43.4669" y2="66.9865" gradientUnits="userSpaceOnUse">
<stop stop-color="#FF9D57" stop-opacity="0"/>
<stop offset="1" stop-color="#F94144"/>
</linearGradient>
</defs>
</svg>
