<svg width="132" height="27" viewBox="0 0 132 27" fill="none" xmlns="http://www.w3.org/2000/svg">
<path d="M34.8724 17.4311C34.873 16.7814 35.3805 16.2749 36.0301 16.2755C36.6798 16.2761 37.0438 16.7003 37.1583 17.1797C37.383 18.3089 38.5938 19.8628 40.8517 19.8649C43.0225 19.8669 44.4937 18.2322 44.4952 16.509C44.4974 14.1956 42.5808 13.3739 41.0839 12.9526L39.674 12.5552C37.8958 12.0188 35.0765 10.8278 35.0799 7.1319C35.0827 4.05793 37.5408 1.80224 40.896 1.80532C44.3384 1.80848 46.6219 4.15171 46.6199 6.35419C46.6193 7.00385 46.1118 7.51043 45.4621 7.50983C44.7847 7.50921 44.4167 7.05728 44.334 6.55016C44.1092 5.44871 43.037 4.0375 40.894 4.03554C38.8064 4.03362 37.4779 5.58523 37.4764 7.27671C37.4743 9.53465 39.6167 10.2695 40.8325 10.6073L42.1037 10.9768C43.9373 11.5133 46.8993 12.6173 46.8956 16.6538C46.8929 19.6446 44.296 22.126 40.8536 22.1228C37.435 22.1197 34.8704 19.6058 34.8724 17.4311Z" fill="white"/>
<path d="M53.0548 4.32806L48.6538 4.32402C48.0318 4.32345 47.5253 3.81594 47.5258 3.19401C47.5264 2.57209 48.0339 2.09324 48.6558 2.09381L59.8584 2.1041C60.4803 2.10467 60.9592 2.58442 60.9586 3.20635C60.958 3.82827 60.4783 4.33487 59.8563 4.3343L55.4553 4.33026L55.4401 20.8647C55.4395 21.5144 54.9042 22.0764 54.2269 22.0758C53.5772 22.0752 53.043 21.5122 53.0436 20.8625L53.0587 4.32806L53.0548 4.32806Z" fill="white"/>
<path d="M72.6652 2.3732C72.9745 2.03677 73.3153 1.89447 73.652 1.89478C74.3016 1.89538 74.8359 2.43065 74.8353 3.10803L74.819 20.8824C74.8184 21.532 74.2831 22.0941 73.6334 22.0935C72.9561 22.0928 72.4218 21.5298 72.4224 20.8802L72.426 16.9585L67.3476 16.9538C66.7257 16.9533 66.2468 16.4735 66.2474 15.8516C66.2479 15.2297 66.7277 14.723 67.3497 14.7236L72.4281 14.7283L72.436 6.12434L59.4127 21.6605C59.2145 21.8861 58.8499 22.0838 58.5369 22.0836C57.915 22.083 57.4084 21.5755 57.409 20.9535C57.4092 20.7 57.4649 20.4743 57.6909 20.221L72.6652 2.3732Z" fill="white"/>
<path d="M92.2777 2.39126C92.587 2.05483 92.9278 1.91254 93.2645 1.91285C93.9142 1.91344 94.4485 2.44872 94.4478 3.1261L94.4315 20.9004C94.4309 21.5501 93.8956 22.1121 93.246 22.1115C92.5686 22.1109 92.0343 21.5479 92.0349 20.8982L92.0385 16.9766L86.9602 16.9719C86.3382 16.9713 85.8593 16.4916 85.8599 15.8696C85.8605 15.2477 86.3403 14.7411 86.9622 14.7417L92.0406 14.7463L92.0485 6.14241L79.0253 21.6786C78.827 21.9042 78.4624 22.1019 78.1495 22.1016C77.5275 22.101 77.021 21.5935 77.0215 20.9716C77.0218 20.7181 77.0774 20.4924 77.3035 20.239L92.2777 2.39126Z" fill="white"/>
<path d="M97.6286 12.0181C97.6338 6.34552 102.067 1.86539 107.684 1.87055C110.845 1.87345 113.581 3.31392 115.326 5.43482C115.551 5.68855 115.662 5.99764 115.662 6.28285C115.661 6.9325 115.126 7.46679 114.449 7.46616C114.14 7.46588 113.771 7.26748 113.49 6.98597C112.137 5.29325 110.106 4.16242 107.682 4.16019C103.451 4.1563 100.116 7.62334 100.112 12.0243C100.108 16.3976 103.433 19.8708 107.667 19.8747C111.363 19.8781 114.301 17.2267 114.982 13.7017L109.337 13.6966C108.715 13.696 108.236 13.2162 108.236 12.5943C108.237 11.9724 108.717 11.4658 109.339 11.4664L116.56 11.473C117.182 11.4736 117.661 11.981 117.66 12.6584C117.486 17.4831 113.361 22.1933 107.665 22.1881C102.048 22.1789 97.6234 17.6867 97.6286 12.0181Z" fill="white"/>
<path d="M120.719 3.34849C120.719 2.69884 121.255 2.16455 121.904 2.16515L129.918 2.17251C130.54 2.17308 131.019 2.65284 131.018 3.27476C131.018 3.89668 130.538 4.40329 129.916 4.40272L123.115 4.39648L123.109 10.9128L129.91 10.9191C130.532 10.9196 131.011 11.4271 131.01 12.049C131.01 12.671 130.53 13.1498 129.908 13.1493L123.106 13.143L123.1 19.6871L129.902 19.6933C130.524 19.6939 131.003 20.1737 131.002 20.7956C131.002 21.4175 130.522 21.9241 129.9 21.9235L121.886 21.9162C121.237 21.9156 120.702 21.3803 120.703 20.7029L120.719 3.34849Z" fill="white"/>
<path d="M4.60222 19.4037L4.78447 19.4039C6.93546 19.4058 10.8146 18.2289 10.8194 13.0476C10.8252 6.6857 14.405 3.77743 18.2642 2.8263L17.1758 1.73594C14.8843 -0.559754 11.1607 -0.563173 8.86495 1.72831L1.736 8.84419C-0.559698 11.1357 -0.563117 14.8593 1.72837 17.155L4.04756 19.4785C4.21794 19.4311 4.40811 19.4035 4.60222 19.4037Z" fill="url(#paint0_linear)"/>
<path d="M24.2878 8.86482L22.0676 6.64049C21.9091 6.67599 21.7467 6.69961 21.5763 6.69945L21.3941 6.69929C19.2431 6.69731 15.3639 7.87422 15.3591 13.0556C15.3533 19.4571 11.726 22.3613 7.8431 23.2926L8.83647 24.2878C11.128 26.5835 14.8516 26.5869 17.1473 24.2955L24.2762 17.1796C26.5798 14.8841 26.5833 11.1645 24.2878 8.86482Z" fill="url(#paint1_linear)"/>
<defs>
<linearGradient id="paint0_linear" x1="13.4225" y1="13.4283" x2="5.29508" y2="5.286" gradientUnits="userSpaceOnUse">
<stop stop-color="#F3722C"/>
<stop offset="1" stop-color="#F94144"/>
</linearGradient>
<linearGradient id="paint1_linear" x1="20.717" y1="20.7361" x2="12.7119" y2="12.7163" gradientUnits="userSpaceOnUse">
<stop stop-color="#F3722C"/>
<stop offset="1" stop-color="#F94144"/>
</linearGradient>
</defs>
</svg>
