<svg width="133" height="27" viewBox="0 0 133 27" fill="none" xmlns="http://www.w3.org/2000/svg">
<path d="M35.8606 17.8203C35.8612 17.1706 36.3688 16.664 37.0184 16.6646C37.6681 16.6652 38.0321 17.0894 38.1466 17.5688C38.3713 18.698 39.582 20.252 41.84 20.254C44.0108 20.256 45.4819 18.6214 45.4835 16.8982C45.4856 14.5848 43.5691 13.763 42.0721 13.3418L40.6623 12.9443C38.8841 12.4079 36.0648 11.217 36.0682 7.52106C36.071 4.44709 38.5291 2.1914 41.8843 2.19448C45.3267 2.19764 47.6102 4.54087 47.6082 6.74335C47.6076 7.39301 47.1 7.89959 46.4504 7.89899C45.773 7.89837 45.405 7.44644 45.3223 6.93932C45.0975 5.83787 44.0253 4.42666 41.8823 4.4247C39.7947 4.42278 38.4662 5.97439 38.4646 7.66587C38.4626 9.92381 40.605 10.6586 41.8208 10.9964L43.092 11.366C44.9256 11.9025 47.8876 13.0064 47.8839 17.043C47.8812 20.0338 45.2842 22.5151 41.8419 22.512C38.4233 22.5088 35.8587 19.995 35.8606 17.8203Z" fill="white"/>
<path d="M54.043 4.71722L49.642 4.71318C49.0201 4.71261 48.5136 4.2051 48.5141 3.58317C48.5147 2.96125 49.0222 2.4824 49.6441 2.48297L60.8467 2.49326C61.4686 2.49383 61.9474 2.97358 61.9469 3.59551C61.9463 4.21743 61.4665 4.72404 60.8446 4.72346L56.4436 4.71942L56.4284 21.2539C56.4278 21.9035 55.8925 22.4656 55.2151 22.4649C54.5655 22.4643 54.0312 21.9013 54.0318 21.2517L54.047 4.71722L54.043 4.71722Z" fill="white"/>
<path d="M73.6535 2.76236C73.9628 2.42593 74.3036 2.28363 74.6403 2.28394C75.2899 2.28454 75.8242 2.81981 75.8236 3.49719L75.8073 21.2715C75.8067 21.9212 75.2714 22.4832 74.6217 22.4826C73.9443 22.482 73.4101 21.919 73.4107 21.2693L73.4143 17.3477L68.3359 17.343C67.714 17.3424 67.2351 16.8627 67.2356 16.2407C67.2362 15.6188 67.716 15.1122 68.3379 15.1128L73.4163 15.1174L73.4242 6.5135L60.401 22.0497C60.2028 22.2753 59.8381 22.473 59.5252 22.4727C58.9033 22.4721 58.3967 21.9646 58.3973 21.3427C58.3975 21.0892 58.4532 20.8634 58.6792 20.6101L73.6535 2.76236Z" fill="white"/>
<path d="M93.266 2.78042C93.5753 2.44399 93.9161 2.3017 94.2528 2.30201C94.9025 2.3026 95.4367 2.83788 95.4361 3.51526L95.4198 21.2896C95.4192 21.9393 94.8839 22.5013 94.2343 22.5007C93.5569 22.5001 93.0226 21.9371 93.0232 21.2874L93.0268 17.3657L87.9484 17.3611C87.3265 17.3605 86.8476 16.8807 86.8482 16.2588C86.8488 15.6369 87.3286 15.1303 87.9505 15.1308L93.0289 15.1355L93.0368 6.53157L80.0136 22.0677C79.8153 22.2933 79.4507 22.4911 79.1378 22.4908C78.5158 22.4902 78.0093 21.9827 78.0098 21.3608C78.0101 21.1072 78.0657 20.8815 78.2917 20.6282L93.266 2.78042Z" fill="white"/>
<path d="M98.6169 12.4073C98.6221 6.73468 103.055 2.25455 108.672 2.25971C111.833 2.26261 114.569 3.70308 116.314 5.82398C116.54 6.07771 116.65 6.3868 116.65 6.67201C116.649 7.32166 116.114 7.85595 115.437 7.85532C115.128 7.85504 114.76 7.65664 114.479 7.37513C113.125 5.68241 111.094 4.55158 108.67 4.54935C104.439 4.54546 101.105 8.0125 101.101 12.4135C101.097 16.7868 104.421 20.2599 108.656 20.2638C112.351 20.2672 115.289 17.6158 115.97 14.0909L110.325 14.0857C109.703 14.0852 109.224 13.6054 109.225 12.9835C109.225 12.3615 109.705 11.8549 110.327 11.8555L117.548 11.8621C118.17 11.8627 118.649 12.3702 118.649 13.0476C118.474 17.8723 114.35 22.5825 108.653 22.5772C103.036 22.5681 98.6117 18.0759 98.6169 12.4073Z" fill="white"/>
<path d="M121.707 3.73765C121.708 3.088 122.243 2.55371 122.893 2.55431L130.906 2.56167C131.528 2.56224 132.007 3.042 132.007 3.66392C132.006 4.28584 131.526 4.79245 130.904 4.79188L124.103 4.78564L124.097 11.302L130.898 11.3082C131.52 11.3088 131.999 11.8163 131.999 12.4382C131.998 13.0601 131.518 13.539 130.896 13.5384L124.095 13.5322L124.089 20.0763L130.89 20.0825C131.512 20.0831 131.991 20.5628 131.991 21.1848C131.99 21.8067 131.51 22.3133 130.888 22.3127L122.875 22.3054C122.225 22.3048 121.691 21.7695 121.691 21.0921L121.707 3.73765Z" fill="white"/>
<path d="M5.5905 19.7929L5.77275 19.793C7.92374 19.795 11.8029 18.6181 11.8077 13.4367C11.8135 7.07486 15.3933 4.16659 19.2524 3.21546L18.1641 2.1251C15.8726 -0.170594 12.1489 -0.174013 9.85323 2.11747L2.72428 9.23335C0.428584 11.5248 0.425165 15.2485 2.71665 17.5442L5.03584 19.8676C5.20622 19.8202 5.39639 19.7927 5.5905 19.7929Z" fill="url(#paint0_linear)"/>
<path d="M25.2761 9.25398L23.0559 7.02965C22.8974 7.06515 22.7349 7.08877 22.5646 7.08861L22.3824 7.08845C20.2314 7.08647 16.3522 8.26338 16.3474 13.4448C16.3416 19.8462 12.7143 22.7505 8.83138 23.6818L9.82476 24.677C12.1162 26.9727 15.8399 26.9761 18.1356 24.6846L25.2645 17.5687C27.5681 15.2733 27.5715 11.5536 25.2761 9.25398Z" fill="url(#paint1_linear)"/>
<defs>
<linearGradient id="paint0_linear" x1="14.4107" y1="13.8175" x2="6.28336" y2="5.67516" gradientUnits="userSpaceOnUse">
<stop stop-color="#F3722C"/>
<stop offset="1" stop-color="#F94144"/>
</linearGradient>
<linearGradient id="paint1_linear" x1="21.7053" y1="21.1253" x2="13.7002" y2="13.1055" gradientUnits="userSpaceOnUse">
<stop stop-color="#F3722C"/>
<stop offset="1" stop-color="#F94144"/>
</linearGradient>
</defs>
</svg>
