<svg width="18" height="18" viewBox="0 0 18 18" fill="none" xmlns="http://www.w3.org/2000/svg">
<path d="M9.05518 16.3152C13.1973 16.3152 16.5552 12.9573 16.5552 8.81518C16.5552 4.67305 13.1973 1.31519 9.05518 1.31519C4.91304 1.31519 1.55518 4.67305 1.55518 8.81518C1.55518 12.9573 4.91304 16.3152 9.05518 16.3152Z" stroke="#F3722C" stroke-width="1.5" stroke-linecap="round" stroke-linejoin="round"/>
<path d="M9.05518 4.31519V8.81518L12.0552 10.3152" stroke="#F3722C" stroke-width="1.5" stroke-linecap="round" stroke-linejoin="round"/>
</svg>
