<svg width="66" height="66" viewBox="0 0 66 66" fill="none" xmlns="http://www.w3.org/2000/svg">
<circle cx="33" cy="33" r="33" fill="black"/>
<path d="M24.5783 37.4037L24.7605 37.4039C26.9115 37.4058 30.7907 36.2289 30.7955 31.0476C30.8013 24.6857 34.3811 21.7774 38.2402 20.8263L37.1519 19.7359C34.8604 17.4402 31.1367 17.4368 28.841 19.7283L21.7121 26.8442C19.4164 29.1357 19.413 32.8593 21.7044 35.155L24.0236 37.4785C24.194 37.4311 24.3842 37.4035 24.5783 37.4037Z" fill="#3B3E44"/>
<path d="M44.2639 26.8648L42.0437 24.6405C41.8852 24.676 41.7227 24.6996 41.5524 24.6995L41.3701 24.6993C39.2192 24.6973 35.34 25.8742 35.3352 31.0556C35.3293 37.4571 31.7021 40.3613 27.8192 41.2926L28.8125 42.2878C31.104 44.5835 34.8276 44.5869 37.1233 42.2955L44.2523 35.1796C46.5559 32.8841 46.5593 29.1645 44.2639 26.8648Z" fill="#3B3E44"/>
</svg>
