<svg width="134" height="29" viewBox="0 0 134 29" fill="none" xmlns="http://www.w3.org/2000/svg">
<path fill-rule="evenodd" clip-rule="evenodd" d="M1.60162 20.4891C0.702092 20.4891 0 21.1912 0 22.0907C0 25.1019 3.55421 28.5793 8.28768 28.5793C13.0541 28.5793 16.6467 25.1403 16.6467 20.9992C16.6467 15.4101 12.544 13.8853 10.0045 13.1448L8.24383 12.6347C6.55996 12.1685 3.59264 11.1538 3.59264 8.02741C3.59264 5.68535 5.43008 3.53527 8.32063 3.53527C11.288 3.53527 12.7743 5.48789 13.087 7.0127C13.2022 7.71477 13.7122 8.34004 14.6502 8.34004C15.5497 8.34004 16.2518 7.63798 16.2518 6.73845C16.2518 3.68884 13.087 0.447266 8.32063 0.447266C3.67491 0.447266 0.274245 3.57366 0.274245 7.82995C0.274245 12.9474 4.17949 14.5928 6.64221 15.3333L8.59487 15.8818C10.6682 16.4632 13.3229 17.5986 13.3229 20.8018C13.3229 23.1877 11.2879 25.4529 8.28219 25.4529C5.1558 25.4529 3.47744 23.3029 3.1648 21.7397C3.00574 21.076 2.50114 20.4891 1.60162 20.4891ZM19.0656 3.92491H25.1593H25.1648V26.8189C25.1648 27.7184 25.9053 28.4973 26.8048 28.4973C27.7427 28.4973 28.4832 27.7184 28.4832 26.8189V3.92491H34.577C35.4381 3.92491 36.1017 3.22285 36.1017 2.36172C36.1017 1.50059 35.4381 0.836914 34.577 0.836914H19.0656C18.2045 0.836914 17.5024 1.50059 17.5024 2.36172C17.5024 3.22285 18.2045 3.92491 19.0656 3.92491ZM52.3094 1.19395C52.7372 0.727734 53.2089 0.530273 53.6751 0.530273C54.5747 0.530273 55.3151 1.27074 55.3151 2.20866V26.8194C55.3151 27.7189 54.5747 28.4978 53.6751 28.4978C52.7372 28.4978 51.9968 27.7189 51.9968 26.8194V21.3894H44.9651C44.104 21.3894 43.4403 20.7257 43.4403 19.8646C43.4403 19.0034 44.104 18.3014 44.9651 18.3014H51.9968V6.38816L33.9843 27.9164C33.7101 28.229 33.2055 28.5033 32.7722 28.5033C31.911 28.5033 31.209 27.8012 31.209 26.9401C31.209 26.5891 31.2858 26.2764 31.5984 25.9254L52.3094 1.19395ZM80.8309 0.530273C80.3647 0.530273 79.893 0.727734 79.4652 1.19395L58.7542 25.9254C58.4415 26.2764 58.3647 26.5891 58.3647 26.9401C58.3647 27.8012 59.0668 28.5033 59.9279 28.5033C60.3612 28.5033 60.8658 28.229 61.1401 27.9164L79.1525 6.38816V18.3014H72.1209C71.2597 18.3014 70.596 19.0034 70.596 19.8646C70.596 20.7257 71.2597 21.3894 72.1209 21.3894H79.1525V26.8194C79.1525 27.7189 79.893 28.4978 80.8309 28.4978C81.7304 28.4978 82.4709 27.7189 82.4709 26.8194V2.20866C82.4709 1.27074 81.7304 0.530273 80.8309 0.530273ZM86.8867 14.5164C86.8867 6.66204 93.0188 0.453125 100.796 0.453125C105.173 0.453125 108.963 2.44415 111.382 5.37858C111.695 5.72961 111.849 6.15743 111.849 6.55234C111.849 7.45187 111.108 8.19233 110.17 8.19233C109.742 8.19233 109.232 7.91809 108.843 7.52866C106.967 5.1866 104.153 3.62341 100.796 3.62341C94.9386 3.62341 90.3257 8.42818 90.3257 14.5219C90.3257 20.5772 94.9331 25.382 100.796 25.382C105.914 25.382 109.978 21.7071 110.916 16.8256H103.1C102.239 16.8256 101.575 16.1619 101.575 15.3008C101.575 14.4396 102.239 13.7376 103.1 13.7376H113.099C113.96 13.7376 114.624 14.4396 114.624 15.3776C114.388 22.0582 108.684 28.5852 100.796 28.5852C93.0188 28.5797 86.8867 22.3653 86.8867 14.5164ZM120.487 0.842773C119.588 0.842773 118.847 1.58324 118.847 2.48276V26.5121C118.847 27.45 119.588 28.1905 120.487 28.1905H131.583C132.444 28.1905 133.108 27.4884 133.108 26.6273C133.108 25.7662 132.444 25.1025 131.583 25.1025H122.166V16.0414H131.583C132.444 16.0414 133.108 15.3778 133.108 14.5166C133.108 13.6555 132.444 12.9534 131.583 12.9534H122.166V3.93078H131.583C132.444 3.93078 133.108 3.22871 133.108 2.36758C133.108 1.50645 132.444 0.842773 131.583 0.842773H120.487Z" fill="white"/>
</svg>
