<svg width="18" height="18" viewBox="0 0 18 18" fill="none" xmlns="http://www.w3.org/2000/svg">
<path d="M8.99996 17.9999C13.9705 17.9999 17.9999 13.9705 17.9999 8.99996C17.9999 4.02942 13.9705 0 8.99996 0C4.02942 0 0 4.02942 0 8.99996C0 13.9705 4.02942 17.9999 8.99996 17.9999Z" fill="#F0F0F0"/>
<path d="M8.60815 8.99991H17.9994C17.9994 8.1876 17.8911 7.40067 17.6894 6.6521H8.60815V8.99991Z" fill="#D80027"/>
<path d="M8.60815 4.30437H16.6784C16.1275 3.40536 15.4231 2.61073 14.6018 1.95654H8.60815V4.30437Z" fill="#D80027"/>
<path d="M8.99967 18C11.1178 18 13.0646 17.2679 14.602 16.0435H3.39734C4.93471 17.2679 6.88155 18 8.99967 18Z" fill="#D80027"/>
<path d="M1.32061 13.6957H16.6786C17.1209 12.974 17.4639 12.1851 17.6895 11.3479H0.309692C0.535289 12.1851 0.878307 12.974 1.32061 13.6957Z" fill="#D80027"/>
<path d="M4.16895 1.40547H4.9891L4.22622 1.95971L4.51763 2.8565L3.75477 2.30227L2.99192 2.8565L3.24364 2.08177C2.57195 2.64128 1.98322 3.2968 1.49807 4.0272H1.76086L1.27525 4.37999C1.1996 4.5062 1.12703 4.63441 1.05749 4.76453L1.28938 5.47823L0.856754 5.1639C0.749211 5.39175 0.650844 5.62473 0.562427 5.86256L0.817906 6.64893H1.76086L0.997975 7.20316L1.28938 8.09996L0.526533 7.54572L0.0695739 7.87774C0.0238358 8.2454 0 8.61988 0 8.99996H8.99996C8.99996 4.02945 8.99996 3.44347 8.99996 0C7.22204 0 5.56468 0.51574 4.16895 1.40547ZM4.51763 8.09996L3.75477 7.54572L2.99192 8.09996L3.28333 7.20316L2.52044 6.64893H3.4634L3.75477 5.75213L4.04615 6.64893H4.9891L4.22622 7.20316L4.51763 8.09996ZM4.22622 4.58143L4.51763 5.47823L3.75477 4.924L2.99192 5.47823L3.28333 4.58143L2.52044 4.0272H3.4634L3.75477 3.1304L4.04615 4.0272H4.9891L4.22622 4.58143ZM7.74587 8.09996L6.98302 7.54572L6.22016 8.09996L6.51157 7.20316L5.74869 6.64893H6.69164L6.98302 5.75213L7.27439 6.64893H8.21735L7.45446 7.20316L7.74587 8.09996ZM7.45446 4.58143L7.74587 5.47823L6.98302 4.924L6.22016 5.47823L6.51157 4.58143L5.74869 4.0272H6.69164L6.98302 3.1304L7.27439 4.0272H8.21735L7.45446 4.58143ZM7.45446 1.95971L7.74587 2.8565L6.98302 2.30227L6.22016 2.8565L6.51157 1.95971L5.74869 1.40547H6.69164L6.98302 0.508673L7.27439 1.40547H8.21735L7.45446 1.95971Z" fill="#0052B4"/>
</svg>
