<svg width="22" height="21" viewBox="0 0 22 21" fill="none" xmlns="http://www.w3.org/2000/svg">
<path fill-rule="evenodd" clip-rule="evenodd" d="M5.99494 15.6985C7.30361 14.4289 9.07349 13.6488 11.016 13.6506C12.9393 13.6524 14.6886 14.4198 15.995 15.6685C14.6863 16.9381 12.9164 17.7182 10.9739 17.7164C9.05059 17.7146 7.3013 16.9472 5.99494 15.6985Z" stroke="#F3722C" stroke-width="1.5" stroke-linecap="round" stroke-linejoin="round"/>
<path d="M4.30937 13.5644C3.80197 12.5522 3.49884 11.4195 3.49995 10.2095C3.50376 6.06447 6.86183 2.71255 11.0068 2.71636C15.1518 2.72016 18.5037 6.07824 18.4999 10.2232C18.4988 11.4316 18.1953 12.5646 17.6827 13.575" stroke="#F3722C" stroke-width="1.5" stroke-linecap="round" stroke-linejoin="round"/>
<path d="M12.7708 6.78351C13.7462 7.76072 13.7447 9.34363 12.7675 10.319C11.7903 11.2945 10.2074 11.293 9.23197 10.3158C8.25656 9.33859 8.25802 7.75568 9.23522 6.78027C10.2124 5.80486 11.7953 5.80631 12.7708 6.78351" stroke="#F3722C" stroke-width="1.5" stroke-linecap="round" stroke-linejoin="round"/>
</svg>
