<svg width="22" height="16" viewBox="0 0 22 16" fill="none" xmlns="http://www.w3.org/2000/svg">
<path d="M19.316 13.708C21.203 11.66 21.013 9.03 21.007 9V1C21.007 0.734784 20.9016 0.48043 20.7141 0.292893C20.5266 0.105357 20.2722 0 20.007 0H14.007C12.904 0 12.007 0.897 12.007 2V9C12.007 9.26522 12.1124 9.51957 12.2999 9.70711C12.4874 9.89464 12.7418 10 13.007 10H16.085C16.0639 10.4944 15.9162 10.9751 15.656 11.396C15.148 12.197 14.191 12.744 12.81 13.02L12.007 13.18V16H13.007C15.79 16 17.913 15.229 19.316 13.708ZM7.309 13.708C9.197 11.66 9.006 9.03 9 9V1C9 0.734784 8.89464 0.48043 8.70711 0.292893C8.51957 0.105357 8.26522 0 8 0H2C0.897 0 0 0.897 0 2V9C0 9.26522 0.105357 9.51957 0.292893 9.70711C0.48043 9.89464 0.734784 10 1 10H4.078C4.05687 10.4944 3.90916 10.9751 3.649 11.396C3.141 12.197 2.184 12.744 0.803 13.02L0 13.18V16H1C3.783 16 5.906 15.229 7.309 13.708Z" fill="url(#paint0_linear)"/>
<defs>
<linearGradient id="paint0_linear" x1="21.0149" y1="-2.50001" x2="-7.74477" y2="-0.692957" gradientUnits="userSpaceOnUse">
<stop stop-color="#FF9D57"/>
<stop offset="1" stop-color="#F94144"/>
</linearGradient>
</defs>
</svg>
