<svg width="184" height="47" viewBox="0 0 184 47" fill="none" xmlns="http://www.w3.org/2000/svg">
<path fill-rule="evenodd" clip-rule="evenodd" d="M37.467 14.5L29.25 25.5H36.5L35.533 32.5L43.75 21.5H36.5L37.467 14.5Z" stroke="#0F1116" stroke-width="1.5" stroke-linecap="round" stroke-linejoin="round"/>
<path d="M59.2595 23.006C59.2595 26.624 61.9055 29.216 65.5235 29.216C69.1595 29.216 71.8055 26.624 71.8055 23.006C71.8055 19.388 69.1595 16.796 65.5235 16.796C61.9055 16.796 59.2595 19.388 59.2595 23.006ZM69.1775 23.006C69.1775 25.238 67.7375 26.948 65.5235 26.948C63.3095 26.948 61.8875 25.238 61.8875 23.006C61.8875 20.756 63.3095 19.064 65.5235 19.064C67.7375 19.064 69.1775 20.756 69.1775 23.006ZM78.1171 22.304V20.306H76.3531V19.874C76.3531 19.046 76.7851 18.614 77.4331 18.614C77.7031 18.614 77.9731 18.668 78.1711 18.794L78.6391 17.174C78.2251 16.958 77.6311 16.814 76.9831 16.814C75.2731 16.814 74.0491 17.948 74.0491 19.838V20.306H72.6091V22.304H74.0491V29H76.3531V22.304H78.1171ZM78.8758 24.644C78.8758 27.434 80.8738 29.216 83.5198 29.216C84.8698 29.216 86.2198 28.82 87.1018 28.01L86.0938 26.534C85.5358 27.074 84.5818 27.398 83.7718 27.398C82.2958 27.398 81.4138 26.48 81.2698 25.382H87.7318V24.878C87.7318 22.034 85.9678 20.09 83.3758 20.09C80.7298 20.09 78.8758 22.124 78.8758 24.644ZM83.3758 21.908C84.8878 21.908 85.4638 23.006 85.5178 23.834H81.2338C81.3418 22.97 81.9538 21.908 83.3758 21.908ZM91.669 29V23.258C92.047 22.7 93.055 22.286 93.811 22.286C94.063 22.286 94.279 22.304 94.441 22.34V20.108C93.361 20.108 92.281 20.72 91.669 21.494V20.306H89.383V29H91.669ZM98.7854 29.216C99.7394 29.216 100.351 28.964 100.693 28.658L100.207 26.93C100.081 27.056 99.7574 27.182 99.4154 27.182C98.9114 27.182 98.6234 26.768 98.6234 26.228V22.304H100.387V20.306H98.6234V17.93H96.3194V20.306H94.8794V22.304H96.3194V26.84C96.3194 28.388 97.1834 29.216 98.7854 29.216ZM109.457 29V23.384C109.457 20.882 107.639 20.09 105.659 20.09C104.291 20.09 102.923 20.522 101.861 21.458L102.725 22.988C103.463 22.304 104.327 21.962 105.263 21.962C106.415 21.962 107.171 22.538 107.171 23.42V24.626C106.595 23.924 105.569 23.564 104.417 23.564C103.031 23.564 101.393 24.302 101.393 26.336C101.393 28.28 103.031 29.216 104.417 29.216C105.551 29.216 106.577 28.802 107.171 28.1V29H109.457ZM107.171 26.912C106.793 27.416 106.073 27.668 105.335 27.668C104.435 27.668 103.697 27.2 103.697 26.39C103.697 25.562 104.435 25.076 105.335 25.076C106.073 25.076 106.793 25.328 107.171 25.832V26.912ZM124.052 16.4H121.946L119.534 18.992H121.136L124.052 16.4ZM124.484 29V20.306H122.198V26.192C121.802 26.696 121.1 27.182 120.218 27.182C119.246 27.182 118.616 26.786 118.616 25.58V20.306H116.33V26.48C116.33 28.172 117.23 29.216 119.138 29.216C120.56 29.216 121.604 28.568 122.198 27.902V29H124.484ZM134.908 29V22.862C134.908 21.17 133.99 20.09 132.082 20.09C130.66 20.09 129.598 20.774 129.04 21.44V20.306H126.754V29H129.04V23.15C129.418 22.628 130.12 22.124 131.02 22.124C131.992 22.124 132.622 22.538 132.622 23.744V29H134.908ZM138.312 19.028C139.068 19.028 139.68 18.416 139.68 17.66C139.68 16.904 139.068 16.292 138.312 16.292C137.574 16.292 136.944 16.904 136.944 17.66C136.944 18.416 137.574 19.028 138.312 19.028ZM139.464 29V20.306H137.178V29H139.464ZM141.173 24.644C141.173 27.326 143.099 29.216 145.781 29.216C147.563 29.216 148.643 28.442 149.219 27.632L147.725 26.246C147.311 26.822 146.681 27.182 145.889 27.182C144.503 27.182 143.531 26.156 143.531 24.644C143.531 23.132 144.503 22.124 145.889 22.124C146.681 22.124 147.311 22.466 147.725 23.06L149.219 21.674C148.643 20.864 147.563 20.09 145.781 20.09C143.099 20.09 141.173 21.98 141.173 24.644ZM158.219 29V23.384C158.219 20.882 156.401 20.09 154.421 20.09C153.053 20.09 151.685 20.522 150.623 21.458L151.487 22.988C152.225 22.304 153.089 21.962 154.025 21.962C155.177 21.962 155.933 22.538 155.933 23.42V24.626C155.357 23.924 154.331 23.564 153.179 23.564C151.793 23.564 150.155 24.302 150.155 26.336C150.155 28.28 151.793 29.216 153.179 29.216C154.313 29.216 155.339 28.802 155.933 28.1V29H158.219ZM155.933 26.912C155.555 27.416 154.835 27.668 154.097 27.668C153.197 27.668 152.459 27.2 152.459 26.39C152.459 25.562 153.197 25.076 154.097 25.076C154.835 25.076 155.555 25.328 155.933 25.832V26.912Z" fill="#0F1116"/>
<rect x="0.75" y="0.25" width="182.5" height="46.5" rx="23.25" stroke="#0F1116" stroke-width="0.5"/>
</svg>
