<svg width="744" height="56" viewBox="0 0 744 56" fill="none" xmlns="http://www.w3.org/2000/svg">
<rect width="744" height="56" fill="#EFF26D"/>
<path d="M-212.876 33H-211.58L-210.252 30.04H-204.156L-202.844 33H-201.484L-206.588 21.72H-207.772L-212.876 33ZM-209.756 28.904L-207.196 23.192L-204.652 28.904H-209.756ZM-199.483 35.56H-198.251V31.416C-197.611 32.344 -196.619 33.176 -195.083 33.176C-193.083 33.176 -191.131 31.576 -191.131 28.872V28.84C-191.131 26.12 -193.099 24.552 -195.083 24.552C-196.603 24.552 -197.579 25.4 -198.251 26.392V24.728H-199.483V35.56ZM-195.307 32.072C-196.843 32.072 -198.299 30.792 -198.299 28.872V28.84C-198.299 26.952 -196.843 25.656 -195.307 25.656C-193.739 25.656 -192.395 26.904 -192.395 28.856V28.888C-192.395 30.888 -193.707 32.072 -195.307 32.072ZM-188.122 29.368H-181.562C-181.546 29.176 -181.546 29.048 -181.546 28.936C-181.546 26.504 -182.954 24.552 -185.402 24.552C-187.69 24.552 -189.37 26.472 -189.37 28.872C-189.37 31.448 -187.514 33.192 -185.242 33.192C-183.674 33.192 -182.666 32.568 -181.834 31.64L-182.602 30.952C-183.274 31.656 -184.074 32.12 -185.21 32.12C-186.666 32.12 -187.946 31.112 -188.122 29.368ZM-188.122 28.376C-187.946 26.776 -186.858 25.592 -185.434 25.592C-183.802 25.592 -182.938 26.872 -182.794 28.376H-188.122ZM-179.39 33H-178.158V28.264C-178.158 26.712 -177.102 25.672 -175.678 25.672C-174.222 25.672 -173.39 26.632 -173.39 28.168V33H-172.158V27.864C-172.158 25.896 -173.326 24.552 -175.326 24.552C-176.75 24.552 -177.614 25.272 -178.158 26.168V24.728H-179.39V33ZM-167.066 33.176C-165.61 33.176 -164.666 32.504 -164.09 31.768V33H-162.874V27.944C-162.874 26.888 -163.162 26.088 -163.738 25.512C-164.33 24.92 -165.242 24.6 -166.41 24.6C-167.626 24.6 -168.506 24.888 -169.418 25.304L-169.05 26.312C-168.282 25.96 -167.514 25.72 -166.538 25.72C-164.986 25.72 -164.09 26.488 -164.09 27.96V28.216C-164.826 28.008 -165.562 27.864 -166.618 27.864C-168.714 27.864 -170.154 28.792 -170.154 30.568V30.6C-170.154 32.296 -168.618 33.176 -167.066 33.176ZM-166.826 32.184C-167.946 32.184 -168.906 31.576 -168.906 30.536V30.504C-168.906 29.512 -168.026 28.84 -166.49 28.84C-165.482 28.84 -164.682 29.016 -164.074 29.192V29.96C-164.074 31.272 -165.306 32.184 -166.826 32.184ZM-157.529 33.16C-155.881 33.16 -154.585 32.248 -154.585 30.68V30.648C-154.585 29.16 -155.961 28.664 -157.241 28.28C-158.345 27.944 -159.369 27.64 -159.369 26.856V26.824C-159.369 26.136 -158.745 25.624 -157.769 25.624C-156.969 25.624 -156.089 25.928 -155.321 26.424L-154.761 25.496C-155.609 24.936 -156.729 24.584 -157.737 24.584C-159.369 24.584 -160.553 25.528 -160.553 26.952V26.984C-160.553 28.504 -159.113 28.952 -157.817 29.32C-156.729 29.624 -155.753 29.944 -155.753 30.776V30.808C-155.753 31.608 -156.473 32.12 -157.465 32.12C-158.441 32.12 -159.433 31.736 -160.329 31.064L-160.953 31.944C-160.025 32.696 -158.713 33.16 -157.529 33.16ZM-147.499 35.56H-146.267V31.416C-145.627 32.344 -144.635 33.176 -143.099 33.176C-141.099 33.176 -139.147 31.576 -139.147 28.872V28.84C-139.147 26.12 -141.115 24.552 -143.099 24.552C-144.619 24.552 -145.595 25.4 -146.267 26.392V24.728H-147.499V35.56ZM-143.323 32.072C-144.859 32.072 -146.315 30.792 -146.315 28.872V28.84C-146.315 26.952 -144.859 25.656 -143.323 25.656C-141.755 25.656 -140.411 26.904 -140.411 28.856V28.888C-140.411 30.888 -141.723 32.072 -143.323 32.072ZM-134.41 33.176C-132.954 33.176 -132.01 32.504 -131.434 31.768V33H-130.218V27.944C-130.218 26.888 -130.506 26.088 -131.082 25.512C-131.674 24.92 -132.586 24.6 -133.754 24.6C-134.97 24.6 -135.85 24.888 -136.762 25.304L-136.394 26.312C-135.626 25.96 -134.858 25.72 -133.882 25.72C-132.33 25.72 -131.434 26.488 -131.434 27.96V28.216C-132.17 28.008 -132.906 27.864 -133.962 27.864C-136.058 27.864 -137.498 28.792 -137.498 30.568V30.6C-137.498 32.296 -135.962 33.176 -134.41 33.176ZM-134.17 32.184C-135.29 32.184 -136.25 31.576 -136.25 30.536V30.504C-136.25 29.512 -135.37 28.84 -133.834 28.84C-132.826 28.84 -132.026 29.016 -131.418 29.192V29.96C-131.418 31.272 -132.65 32.184 -134.17 32.184ZM-127.608 33H-126.376V29.704C-126.376 27.208 -124.904 25.912 -123.096 25.912H-123V24.584C-124.568 24.52 -125.768 25.512 -126.376 26.888V24.728H-127.608V33ZM-119.066 33.176C-117.61 33.176 -116.666 32.504 -116.09 31.768V33H-114.874V27.944C-114.874 26.888 -115.162 26.088 -115.738 25.512C-116.33 24.92 -117.242 24.6 -118.41 24.6C-119.626 24.6 -120.506 24.888 -121.418 25.304L-121.05 26.312C-120.282 25.96 -119.514 25.72 -118.538 25.72C-116.986 25.72 -116.09 26.488 -116.09 27.96V28.216C-116.826 28.008 -117.562 27.864 -118.618 27.864C-120.714 27.864 -122.154 28.792 -122.154 30.568V30.6C-122.154 32.296 -120.618 33.176 -119.066 33.176ZM-118.826 32.184C-119.946 32.184 -120.906 31.576 -120.906 30.536V30.504C-120.906 29.512 -120.026 28.84 -118.49 28.84C-117.482 28.84 -116.682 29.016 -116.074 29.192V29.96C-116.074 31.272 -117.306 32.184 -118.826 32.184ZM-103.692 33.192C-101.196 33.192 -99.3557 31.208 -99.3557 28.872V28.84C-99.3557 26.504 -101.18 24.552 -103.66 24.552C-106.156 24.552 -107.98 26.536 -107.98 28.872V28.904C-107.98 31.24 -106.172 33.192 -103.692 33.192ZM-103.66 32.088C-105.404 32.088 -106.716 30.648 -106.716 28.872V28.84C-106.716 27.096 -105.484 25.64 -103.692 25.64C-101.948 25.64 -100.62 27.096 -100.62 28.872V28.904C-100.62 30.648 -101.868 32.088 -103.66 32.088ZM-94.388 33.16C-92.74 33.16 -91.444 32.248 -91.444 30.68V30.648C-91.444 29.16 -92.82 28.664 -94.1 28.28C-95.204 27.944 -96.228 27.64 -96.228 26.856V26.824C-96.228 26.136 -95.604 25.624 -94.628 25.624C-93.828 25.624 -92.948 25.928 -92.18 26.424L-91.62 25.496C-92.468 24.936 -93.588 24.584 -94.596 24.584C-96.228 24.584 -97.412 25.528 -97.412 26.952V26.984C-97.412 28.504 -95.972 28.952 -94.676 29.32C-93.588 29.624 -92.612 29.944 -92.612 30.776V30.808C-92.612 31.608 -93.332 32.12 -94.324 32.12C-95.3 32.12 -96.292 31.736 -97.188 31.064L-97.812 31.944C-96.884 32.696 -95.572 33.16 -94.388 33.16ZM-81.8944 33.176C-80.4384 33.176 -79.4944 32.504 -78.9184 31.768V33H-77.7024V27.944C-77.7024 26.888 -77.9904 26.088 -78.5664 25.512C-79.1584 24.92 -80.0704 24.6 -81.2384 24.6C-82.4544 24.6 -83.3344 24.888 -84.2464 25.304L-83.8784 26.312C-83.1104 25.96 -82.3424 25.72 -81.3664 25.72C-79.8144 25.72 -78.9184 26.488 -78.9184 27.96V28.216C-79.6544 28.008 -80.3904 27.864 -81.4464 27.864C-83.5424 27.864 -84.9824 28.792 -84.9824 30.568V30.6C-84.9824 32.296 -83.4464 33.176 -81.8944 33.176ZM-81.6544 32.184C-82.7744 32.184 -83.7344 31.576 -83.7344 30.536V30.504C-83.7344 29.512 -82.8544 28.84 -81.3184 28.84C-80.3104 28.84 -79.5104 29.016 -78.9024 29.192V29.96C-78.9024 31.272 -80.1344 32.184 -81.6544 32.184ZM-74.9807 33H-73.7487V21.32H-74.9807V33ZM-67.8496 33.176C-66.4256 33.176 -65.5776 32.456 -65.0176 31.56V33H-63.8016V24.728H-65.0176V29.464C-65.0176 31.016 -66.0896 32.056 -67.4976 32.056C-68.9536 32.056 -69.7856 31.096 -69.7856 29.56V24.728H-71.0176V29.864C-71.0176 31.832 -69.8496 33.176 -67.8496 33.176ZM-61.0302 33H-59.7982V28.264C-59.7982 26.712 -58.7422 25.672 -57.3182 25.672C-55.8622 25.672 -55.0302 26.632 -55.0302 28.168V33H-53.7982V27.864C-53.7982 25.896 -54.9662 24.552 -56.9662 24.552C-58.3902 24.552 -59.2542 25.272 -59.7982 26.168V24.728H-61.0302V33ZM-47.3949 33.192C-44.8989 33.192 -43.0589 31.208 -43.0589 28.872V28.84C-43.0589 26.504 -44.8829 24.552 -47.3629 24.552C-49.8589 24.552 -51.6829 26.536 -51.6829 28.872V28.904C-51.6829 31.24 -49.8749 33.192 -47.3949 33.192ZM-47.3629 32.088C-49.1069 32.088 -50.4189 30.648 -50.4189 28.872V28.84C-50.4189 27.096 -49.1869 25.64 -47.3949 25.64C-45.6509 25.64 -44.3229 27.096 -44.3229 28.872V28.904C-44.3229 30.648 -45.5709 32.088 -47.3629 32.088ZM-38.0911 33.16C-36.4431 33.16 -35.1471 32.248 -35.1471 30.68V30.648C-35.1471 29.16 -36.5231 28.664 -37.8031 28.28C-38.9071 27.944 -39.9311 27.64 -39.9311 26.856V26.824C-39.9311 26.136 -39.3071 25.624 -38.3311 25.624C-37.5311 25.624 -36.6511 25.928 -35.8831 26.424L-35.3231 25.496C-36.1711 24.936 -37.2911 24.584 -38.2991 24.584C-39.9311 24.584 -41.1151 25.528 -41.1151 26.952V26.984C-41.1151 28.504 -39.6751 28.952 -38.3791 29.32C-37.2911 29.624 -36.3151 29.944 -36.3151 30.776V30.808C-36.3151 31.608 -37.0351 32.12 -38.0271 32.12C-39.0031 32.12 -39.9951 31.736 -40.8911 31.064L-41.5151 31.944C-40.5871 32.696 -39.2751 33.16 -38.0911 33.16ZM-24.5895 33.176C-23.0695 33.176 -22.0935 32.328 -21.4215 31.336V33H-20.1895V21.32H-21.4215V26.312C-22.0615 25.384 -23.0535 24.552 -24.5895 24.552C-26.5735 24.552 -28.5415 26.152 -28.5415 28.856V28.888C-28.5415 31.608 -26.5735 33.176 -24.5895 33.176ZM-24.3655 32.072C-25.9335 32.072 -27.2775 30.824 -27.2775 28.872V28.84C-27.2775 26.84 -25.9655 25.656 -24.3655 25.656C-22.8295 25.656 -21.3735 26.936 -21.3735 28.84V28.872C-21.3735 30.776 -22.8295 32.072 -24.3655 32.072ZM-14.9725 33.176C-13.5165 33.176 -12.5725 32.504 -11.9965 31.768V33H-10.7805V27.944C-10.7805 26.888 -11.0685 26.088 -11.6445 25.512C-12.2365 24.92 -13.1485 24.6 -14.3165 24.6C-15.5325 24.6 -16.4125 24.888 -17.3245 25.304L-16.9565 26.312C-16.1885 25.96 -15.4205 25.72 -14.4445 25.72C-12.8925 25.72 -11.9965 26.488 -11.9965 27.96V28.216C-12.7325 28.008 -13.4685 27.864 -14.5245 27.864C-16.6205 27.864 -18.0605 28.792 -18.0605 30.568V30.6C-18.0605 32.296 -16.5245 33.176 -14.9725 33.176ZM-14.7325 32.184C-15.8525 32.184 -16.8125 31.576 -16.8125 30.536V30.504C-16.8125 29.512 -15.9325 28.84 -14.3965 28.84C-13.3885 28.84 -12.5885 29.016 -11.9805 29.192V29.96C-11.9805 31.272 -13.2125 32.184 -14.7325 32.184ZM-3.374 35.56H-2.142V31.416C-1.502 32.344 -0.51 33.176 1.026 33.176C3.026 33.176 4.978 31.576 4.978 28.872V28.84C4.978 26.12 3.01 24.552 1.026 24.552C-0.494 24.552 -1.47 25.4 -2.142 26.392V24.728H-3.374V35.56ZM0.802 32.072C-0.734 32.072 -2.19 30.792 -2.19 28.872V28.84C-2.19 26.952 -0.734 25.656 0.802 25.656C2.37 25.656 3.714 26.904 3.714 28.856V28.888C3.714 30.888 2.402 32.072 0.802 32.072ZM7.251 33H8.483V29.704C8.483 27.208 9.955 25.912 11.763 25.912H11.859V24.584C10.291 24.52 9.091 25.512 8.483 26.888V24.728H7.251V33ZM13.7674 22.92H15.1754V21.56H13.7674V22.92ZM13.8474 33H15.0794V24.728H13.8474V33ZM17.9385 33H19.1705V28.28C19.1705 26.76 20.1625 25.672 21.4745 25.672C22.7865 25.672 23.6025 26.584 23.6025 28.136V33H24.8185V28.232C24.8185 26.6 25.8585 25.672 27.1065 25.672C28.4505 25.672 29.2505 26.568 29.2505 28.168V33H30.4825V27.88C30.4825 25.832 29.3145 24.552 27.4105 24.552C25.9705 24.552 25.0905 25.288 24.4985 26.2C24.0505 25.272 23.1865 24.552 21.8425 24.552C20.4505 24.552 19.7145 25.304 19.1705 26.12V24.728H17.9385V33ZM33.8932 29.368H40.4533C40.4693 29.176 40.4693 29.048 40.4693 28.936C40.4693 26.504 39.0613 24.552 36.6133 24.552C34.3253 24.552 32.6453 26.472 32.6453 28.872C32.6453 31.448 34.5013 33.192 36.7733 33.192C38.3413 33.192 39.3493 32.568 40.1813 31.64L39.4133 30.952C38.7413 31.656 37.9413 32.12 36.8053 32.12C35.3493 32.12 34.0693 31.112 33.8932 29.368ZM33.8932 28.376C34.0693 26.776 35.1573 25.592 36.5813 25.592C38.2133 25.592 39.0773 26.872 39.2213 28.376H33.8932ZM42.658 22.92H44.066V21.56H42.658V22.92ZM42.738 33H43.97V24.728H42.738V33ZM46.8291 33H48.0611V29.704C48.0611 27.208 49.5331 25.912 51.3411 25.912H51.4371V24.584C49.8691 24.52 48.6691 25.512 48.0611 26.888V24.728H46.8291V33ZM55.3713 33.176C56.8273 33.176 57.7713 32.504 58.3473 31.768V33H59.5633V27.944C59.5633 26.888 59.2753 26.088 58.6993 25.512C58.1073 24.92 57.1953 24.6 56.0273 24.6C54.8113 24.6 53.9313 24.888 53.0193 25.304L53.3873 26.312C54.1553 25.96 54.9233 25.72 55.8993 25.72C57.4513 25.72 58.3473 26.488 58.3473 27.96V28.216C57.6113 28.008 56.8753 27.864 55.8193 27.864C53.7233 27.864 52.2833 28.792 52.2833 30.568V30.6C52.2833 32.296 53.8193 33.176 55.3713 33.176ZM55.6113 32.184C54.4913 32.184 53.5312 31.576 53.5312 30.536V30.504C53.5312 29.512 54.4113 28.84 55.9473 28.84C56.9553 28.84 57.7553 29.016 58.3633 29.192V29.96C58.3633 31.272 57.1313 32.184 55.6113 32.184ZM69.7378 33.144C70.3298 33.144 70.7938 33.016 71.2258 32.792V31.736C70.7938 31.944 70.4418 32.024 70.0258 32.024C69.1938 32.024 68.6338 31.656 68.6338 30.648V25.816H71.2578V24.728H68.6338V22.232H67.4018V24.728H66.2498V25.816H67.4018V30.808C67.4018 32.488 68.4098 33.144 69.7378 33.144ZM76.4785 33.176C77.9025 33.176 78.7505 32.456 79.3105 31.56V33H80.5265V24.728H79.3105V29.464C79.3105 31.016 78.2385 32.056 76.8305 32.056C75.3745 32.056 74.5425 31.096 74.5425 29.56V24.728H73.3105V29.864C73.3105 31.832 74.4785 33.176 76.4785 33.176ZM83.2979 33H84.5299V29.704C84.5299 27.208 86.0019 25.912 87.8099 25.912H87.9059V24.584C86.3379 24.52 85.1379 25.512 84.5299 26.888V24.728H83.2979V33ZM89.7823 33H91.0143V28.28C91.0143 26.76 92.0063 25.672 93.3183 25.672C94.6303 25.672 95.4463 26.584 95.4463 28.136V33H96.6623V28.232C96.6623 26.6 97.7023 25.672 98.9503 25.672C100.294 25.672 101.094 26.568 101.094 28.168V33H102.326V27.88C102.326 25.832 101.158 24.552 99.2543 24.552C97.8142 24.552 96.9343 25.288 96.3423 26.2C95.8943 25.272 95.0303 24.552 93.6863 24.552C92.2943 24.552 91.5583 25.304 91.0143 26.12V24.728H89.7823V33ZM107.465 33.176C108.921 33.176 109.865 32.504 110.441 31.768V33H111.657V27.944C111.657 26.888 111.369 26.088 110.793 25.512C110.201 24.92 109.289 24.6 108.121 24.6C106.905 24.6 106.025 24.888 105.113 25.304L105.481 26.312C106.249 25.96 107.017 25.72 107.993 25.72C109.545 25.72 110.441 26.488 110.441 27.96V28.216C109.705 28.008 108.969 27.864 107.913 27.864C105.817 27.864 104.377 28.792 104.377 30.568V30.6C104.377 32.296 105.913 33.176 107.465 33.176ZM107.705 32.184C106.585 32.184 105.625 31.576 105.625 30.536V30.504C105.625 29.512 106.505 28.84 108.041 28.84C109.049 28.84 109.849 29.016 110.457 29.192V29.96C110.457 31.272 109.225 32.184 107.705 32.184Z" fill="black"/>
<path d="M141.324 29.464C142.476 29.464 143.42 28.536 143.42 27.384V27.352C143.42 26.2 142.428 25.272 141.324 25.272C140.204 25.272 139.228 26.2 139.228 27.352V27.384C139.228 28.536 140.172 29.464 141.324 29.464Z" fill="black"/>
<path d="M171.084 33H172.316V23.944L176.396 29.928H176.46L180.54 23.928V33H181.804V21.8H180.524L176.444 27.912L172.364 21.8H171.084V33ZM187.231 33.176C188.687 33.176 189.631 32.504 190.207 31.768V33H191.423V27.944C191.423 26.888 191.135 26.088 190.559 25.512C189.967 24.92 189.055 24.6 187.887 24.6C186.671 24.6 185.791 24.888 184.879 25.304L185.247 26.312C186.015 25.96 186.783 25.72 187.759 25.72C189.311 25.72 190.207 26.488 190.207 27.96V28.216C189.471 28.008 188.735 27.864 187.679 27.864C185.583 27.864 184.143 28.792 184.143 30.568V30.6C184.143 32.296 185.679 33.176 187.231 33.176ZM187.471 32.184C186.351 32.184 185.391 31.576 185.391 30.536V30.504C185.391 29.512 186.271 28.84 187.807 28.84C188.815 28.84 189.615 29.016 190.223 29.192V29.96C190.223 31.272 188.991 32.184 187.471 32.184ZM194.064 22.92H195.472V21.56H194.064V22.92ZM194.144 33H195.376V24.728H194.144V33ZM200.971 33.16C202.619 33.16 203.915 32.248 203.915 30.68V30.648C203.915 29.16 202.539 28.664 201.259 28.28C200.155 27.944 199.131 27.64 199.131 26.856V26.824C199.131 26.136 199.755 25.624 200.731 25.624C201.531 25.624 202.411 25.928 203.179 26.424L203.739 25.496C202.891 24.936 201.771 24.584 200.763 24.584C199.131 24.584 197.947 25.528 197.947 26.952V26.984C197.947 28.504 199.387 28.952 200.683 29.32C201.771 29.624 202.747 29.944 202.747 30.776V30.808C202.747 31.608 202.027 32.12 201.035 32.12C200.059 32.12 199.067 31.736 198.171 31.064L197.547 31.944C198.475 32.696 199.787 33.16 200.971 33.16ZM214.473 33.176C215.993 33.176 216.969 32.328 217.641 31.336V33H218.873V21.32H217.641V26.312C217.001 25.384 216.009 24.552 214.473 24.552C212.489 24.552 210.521 26.152 210.521 28.856V28.888C210.521 31.608 212.489 33.176 214.473 33.176ZM214.697 32.072C213.129 32.072 211.785 30.824 211.785 28.872V28.84C211.785 26.84 213.097 25.656 214.697 25.656C216.233 25.656 217.689 26.936 217.689 28.84V28.872C217.689 30.776 216.233 32.072 214.697 32.072ZM222.362 29.368H228.922C228.938 29.176 228.938 29.048 228.938 28.936C228.938 26.504 227.53 24.552 225.082 24.552C222.794 24.552 221.114 26.472 221.114 28.872C221.114 31.448 222.97 33.192 225.242 33.192C226.81 33.192 227.818 32.568 228.65 31.64L227.882 30.952C227.21 31.656 226.41 32.12 225.274 32.12C223.818 32.12 222.538 31.112 222.362 29.368ZM222.362 28.376C222.538 26.776 223.626 25.592 225.05 25.592C226.682 25.592 227.546 26.872 227.69 28.376H222.362ZM236.1 33H237.364V28.648H240.564L243.812 33H245.364L241.924 28.424C243.684 28.104 244.964 27.016 244.964 25.16V25.128C244.964 24.248 244.644 23.464 244.1 22.92C243.396 22.216 242.292 21.8 240.916 21.8H236.1V33ZM237.364 27.512V22.968H240.82C242.628 22.968 243.684 23.8 243.684 25.176V25.208C243.684 26.648 242.484 27.512 240.804 27.512H237.364ZM250.75 34.568H251.774V33C253.79 32.872 255.182 31.704 255.182 29.992V29.96C255.182 28.344 254.158 27.416 251.726 26.856V22.92C252.574 23.064 253.374 23.416 254.142 24.072L254.83 23.112C253.902 22.392 252.974 21.944 251.774 21.832V20.872H250.75V21.8C248.782 21.896 247.39 23.096 247.39 24.744V24.776C247.39 26.44 248.43 27.32 250.798 27.88V31.88C249.598 31.752 248.654 31.224 247.694 30.36L246.974 31.32C248.094 32.28 249.326 32.84 250.75 32.968V34.568ZM250.798 26.632C249.038 26.184 248.622 25.592 248.622 24.696V24.664C248.622 23.688 249.454 22.92 250.798 22.872V26.632ZM251.726 31.928V28.104C253.502 28.536 253.95 29.096 253.95 30.04V30.072C253.95 31.112 253.086 31.864 251.726 31.928ZM265.895 33.192C268.231 33.192 269.895 31.704 269.895 29.512V29.48C269.895 27.352 268.199 26.056 266.023 26.056C265.095 26.056 264.471 26.264 263.815 26.552L264.055 22.968H269.399V21.8H262.951L262.631 27.256L263.479 27.816C264.135 27.464 264.887 27.176 265.831 27.176C267.463 27.176 268.615 28.136 268.615 29.528V29.56C268.615 30.984 267.511 32.04 265.911 32.04C264.775 32.04 263.703 31.448 262.727 30.504L261.895 31.416C262.903 32.424 264.295 33.192 265.895 33.192ZM272.076 33H273.548V31.32H272.076V33ZM280.165 33.192C283.045 33.192 284.901 30.536 284.901 27.4V27.368C284.901 24.232 283.077 21.608 280.197 21.608C277.317 21.608 275.445 24.264 275.445 27.4V27.432C275.445 30.568 277.269 33.192 280.165 33.192ZM280.197 32.04C278.101 32.04 276.757 29.848 276.757 27.4V27.368C276.757 24.904 278.069 22.76 280.165 22.76C282.245 22.76 283.589 24.952 283.589 27.4V27.432C283.589 29.88 282.293 32.04 280.197 32.04ZM291.603 33.192C294.483 33.192 296.339 30.536 296.339 27.4V27.368C296.339 24.232 294.515 21.608 291.635 21.608C288.755 21.608 286.883 24.264 286.883 27.4V27.432C286.883 30.568 288.707 33.192 291.603 33.192ZM291.635 32.04C289.539 32.04 288.195 29.848 288.195 27.4V27.368C288.195 24.904 289.507 22.76 291.603 22.76C293.683 22.76 295.027 24.952 295.027 27.4V27.432C295.027 29.88 293.731 32.04 291.635 32.04ZM303.04 33.192C305.92 33.192 307.776 30.536 307.776 27.4V27.368C307.776 24.232 305.952 21.608 303.072 21.608C300.192 21.608 298.32 24.264 298.32 27.4V27.432C298.32 30.568 300.144 33.192 303.04 33.192ZM303.072 32.04C300.976 32.04 299.632 29.848 299.632 27.4V27.368C299.632 24.904 300.944 22.76 303.04 22.76C305.12 22.76 306.464 24.952 306.464 27.4V27.432C306.464 29.88 305.168 32.04 303.072 32.04ZM309.381 34.952C310.597 34.68 311.157 34.056 311.157 32.76V31.32H309.685V33H310.261C310.325 33.688 309.989 34.104 309.189 34.392L309.381 34.952ZM317.775 33.192C320.655 33.192 322.511 30.536 322.511 27.4V27.368C322.511 24.232 320.687 21.608 317.807 21.608C314.927 21.608 313.055 24.264 313.055 27.4V27.432C313.055 30.568 314.879 33.192 317.775 33.192ZM317.807 32.04C315.711 32.04 314.367 29.848 314.367 27.4V27.368C314.367 24.904 315.679 22.76 317.775 22.76C319.855 22.76 321.199 24.952 321.199 27.4V27.432C321.199 29.88 319.903 32.04 317.807 32.04ZM329.212 33.192C332.092 33.192 333.948 30.536 333.948 27.4V27.368C333.948 24.232 332.124 21.608 329.244 21.608C326.364 21.608 324.492 24.264 324.492 27.4V27.432C324.492 30.568 326.316 33.192 329.212 33.192ZM329.244 32.04C327.148 32.04 325.804 29.848 325.804 27.4V27.368C325.804 24.904 327.116 22.76 329.212 22.76C331.292 22.76 332.636 24.952 332.636 27.4V27.432C332.636 29.88 331.34 32.04 329.244 32.04ZM341.846 29.368H348.406C348.422 29.176 348.422 29.048 348.422 28.936C348.422 26.504 347.014 24.552 344.566 24.552C342.278 24.552 340.598 26.472 340.598 28.872C340.598 31.448 342.454 33.192 344.726 33.192C346.294 33.192 347.302 32.568 348.134 31.64L347.366 30.952C346.694 31.656 345.894 32.12 344.758 32.12C343.302 32.12 342.022 31.112 341.846 29.368ZM341.846 28.376C342.022 26.776 343.11 25.592 344.534 25.592C346.166 25.592 347.03 26.872 347.174 28.376H341.846ZM350.579 33H351.811V28.28C351.811 26.76 352.803 25.672 354.115 25.672C355.427 25.672 356.243 26.584 356.243 28.136V33H357.459V28.232C357.459 26.6 358.499 25.672 359.747 25.672C361.091 25.672 361.891 26.568 361.891 28.168V33H363.123V27.88C363.123 25.832 361.955 24.552 360.051 24.552C358.611 24.552 357.731 25.288 357.139 26.2C356.691 25.272 355.827 24.552 354.483 24.552C353.091 24.552 352.355 25.304 351.811 26.12V24.728H350.579V33ZM374.995 33.176C376.995 33.176 378.947 31.576 378.947 28.872V28.84C378.947 26.12 376.979 24.552 374.995 24.552C373.475 24.552 372.499 25.4 371.827 26.392V21.32H370.595V33H371.827V31.416C372.467 32.344 373.459 33.176 374.995 33.176ZM374.771 32.072C373.235 32.072 371.779 30.792 371.779 28.872V28.84C371.779 26.952 373.235 25.656 374.771 25.656C376.339 25.656 377.683 26.904 377.683 28.856V28.888C377.683 30.888 376.371 32.072 374.771 32.072ZM382.772 23.48H383.796L384.996 22.408L386.196 23.48H387.252L385.556 21.384H384.468L382.772 23.48ZM384.996 33.192C387.492 33.192 389.332 31.208 389.332 28.872V28.84C389.332 26.504 387.508 24.552 385.028 24.552C382.532 24.552 380.708 26.536 380.708 28.872V28.904C380.708 31.24 382.516 33.192 384.996 33.192ZM385.028 32.088C383.284 32.088 381.972 30.648 381.972 28.872V28.84C381.972 27.096 383.204 25.64 384.996 25.64C386.74 25.64 388.068 27.096 388.068 28.872V28.904C388.068 30.648 386.82 32.088 385.028 32.088ZM391.564 33H392.796V28.264C392.796 26.712 393.852 25.672 395.276 25.672C396.732 25.672 397.564 26.632 397.564 28.168V33H398.796V27.864C398.796 25.896 397.628 24.552 395.628 24.552C394.204 24.552 393.34 25.272 392.796 26.168V24.728H391.564V33ZM404.463 33.176C405.887 33.176 406.735 32.456 407.295 31.56V33H408.511V24.728H407.295V29.464C407.295 31.016 406.223 32.056 404.815 32.056C403.359 32.056 402.527 31.096 402.527 29.56V24.728H401.295V29.864C401.295 31.832 402.463 33.176 404.463 33.176ZM414.018 33.16C415.666 33.16 416.962 32.248 416.962 30.68V30.648C416.962 29.16 415.586 28.664 414.306 28.28C413.202 27.944 412.178 27.64 412.178 26.856V26.824C412.178 26.136 412.802 25.624 413.778 25.624C414.578 25.624 415.458 25.928 416.226 26.424L416.786 25.496C415.938 24.936 414.818 24.584 413.81 24.584C412.178 24.584 410.994 25.528 410.994 26.952V26.984C410.994 28.504 412.434 28.952 413.73 29.32C414.818 29.624 415.794 29.944 415.794 30.776V30.808C415.794 31.608 415.074 32.12 414.082 32.12C413.106 32.12 412.114 31.736 411.218 31.064L410.594 31.944C411.522 32.696 412.834 33.16 414.018 33.16Z" fill="black"/>
<path d="M446.324 29.464C447.476 29.464 448.42 28.536 448.42 27.384V27.352C448.42 26.2 447.428 25.272 446.324 25.272C445.204 25.272 444.228 26.2 444.228 27.352V27.384C444.228 28.536 445.172 29.464 446.324 29.464Z" fill="black"/>
<path d="M479.044 33H480.324V22.968H484.084V21.8H475.284V22.968H479.044V33ZM484.829 33H486.061V29.704C486.061 27.208 487.533 25.912 489.341 25.912H489.437V24.584C487.869 24.52 486.669 25.512 486.061 26.888V24.728H484.829V33ZM493.371 33.176C494.827 33.176 495.771 32.504 496.347 31.768V33H497.563V27.944C497.563 26.888 497.275 26.088 496.699 25.512C496.107 24.92 495.195 24.6 494.027 24.6C492.811 24.6 491.931 24.888 491.019 25.304L491.387 26.312C492.155 25.96 492.923 25.72 493.899 25.72C495.451 25.72 496.347 26.488 496.347 27.96V28.216C495.611 28.008 494.875 27.864 493.819 27.864C491.723 27.864 490.283 28.792 490.283 30.568V30.6C490.283 32.296 491.819 33.176 493.371 33.176ZM493.611 32.184C492.491 32.184 491.531 31.576 491.531 30.536V30.504C491.531 29.512 492.411 28.84 493.947 28.84C494.955 28.84 495.755 29.016 496.363 29.192V29.96C496.363 31.272 495.131 32.184 493.611 32.184ZM504.573 33.176C506.573 33.176 508.525 31.576 508.525 28.872V28.84C508.525 26.12 506.557 24.552 504.573 24.552C503.053 24.552 502.077 25.4 501.405 26.392V21.32H500.173V33H501.405V31.416C502.045 32.344 503.037 33.176 504.573 33.176ZM504.349 32.072C502.813 32.072 501.357 30.792 501.357 28.872V28.84C501.357 26.952 502.813 25.656 504.349 25.656C505.917 25.656 507.261 26.904 507.261 28.856V28.888C507.261 30.888 505.949 32.072 504.349 32.072ZM513.262 33.176C514.718 33.176 515.662 32.504 516.238 31.768V33H517.454V27.944C517.454 26.888 517.166 26.088 516.59 25.512C515.998 24.92 515.086 24.6 513.918 24.6C512.702 24.6 511.822 24.888 510.91 25.304L511.278 26.312C512.046 25.96 512.814 25.72 513.79 25.72C515.342 25.72 516.238 26.488 516.238 27.96V28.216C515.502 28.008 514.766 27.864 513.71 27.864C511.614 27.864 510.174 28.792 510.174 30.568V30.6C510.174 32.296 511.71 33.176 513.262 33.176ZM513.502 32.184C512.382 32.184 511.422 31.576 511.422 30.536V30.504C511.422 29.512 512.302 28.84 513.838 28.84C514.846 28.84 515.646 29.016 516.254 29.192V29.96C516.254 31.272 515.022 32.184 513.502 32.184ZM520.176 33H521.408V21.32H520.176V33ZM524.267 33H525.499V28.264C525.499 26.712 526.555 25.672 527.979 25.672C529.435 25.672 530.267 26.632 530.267 28.168V33H531.499V27.864C531.499 25.896 530.331 24.552 528.331 24.552C526.907 24.552 526.043 25.272 525.499 26.168V21.32H524.267V33ZM534.862 29.368H541.422C541.438 29.176 541.438 29.048 541.438 28.936C541.438 26.504 540.03 24.552 537.582 24.552C535.294 24.552 533.614 26.472 533.614 28.872C533.614 31.448 535.47 33.192 537.742 33.192C539.31 33.192 540.318 32.568 541.15 31.64L540.382 30.952C539.71 31.656 538.91 32.12 537.774 32.12C536.318 32.12 535.038 31.112 534.862 29.368ZM534.862 28.376C535.038 26.776 536.126 25.592 537.55 25.592C539.182 25.592 540.046 26.872 540.19 28.376H534.862ZM548.392 33H549.624V28.264C549.624 26.712 550.68 25.672 552.104 25.672C553.56 25.672 554.392 26.632 554.392 28.168V33H555.624V27.864C555.624 25.896 554.456 24.552 552.456 24.552C551.032 24.552 550.168 25.272 549.624 26.168V24.728H548.392V33ZM562.027 33.192C564.523 33.192 566.363 31.208 566.363 28.872V28.84C566.363 26.504 564.539 24.552 562.059 24.552C559.563 24.552 557.739 26.536 557.739 28.872V28.904C557.739 31.24 559.547 33.192 562.027 33.192ZM562.059 32.088C560.315 32.088 559.003 30.648 559.003 28.872V28.84C559.003 27.096 560.235 25.64 562.027 25.64C563.771 25.64 565.099 27.096 565.099 28.872V28.904C565.099 30.648 563.851 32.088 562.059 32.088ZM578.8 33.192C580.688 33.192 582.256 32.408 583.296 31.48V27.016H578.672V28.152H582.08V30.936C581.312 31.56 580.128 32.056 578.848 32.056C576.128 32.056 574.416 30.072 574.416 27.4V27.368C574.416 24.872 576.192 22.776 578.672 22.776C580.256 22.776 581.216 23.304 582.08 24.056L582.896 23.096C581.776 22.152 580.608 21.608 578.72 21.608C575.36 21.608 573.104 24.328 573.104 27.4V27.432C573.104 30.632 575.28 33.192 578.8 33.192ZM585.939 33H587.171V29.704C587.171 27.208 588.643 25.912 590.451 25.912H590.547V24.584C588.979 24.52 587.779 25.512 587.171 26.888V24.728H585.939V33ZM595.463 33.176C596.887 33.176 597.735 32.456 598.295 31.56V33H599.511V24.728H598.295V29.464C598.295 31.016 597.223 32.056 595.815 32.056C594.359 32.056 593.527 31.096 593.527 29.56V24.728H592.295V29.864C592.295 31.832 593.463 33.176 595.463 33.176ZM602.282 35.56H603.514V31.416C604.154 32.344 605.146 33.176 606.682 33.176C608.682 33.176 610.634 31.576 610.634 28.872V28.84C610.634 26.12 608.666 24.552 606.682 24.552C605.162 24.552 604.186 25.4 603.514 26.392V24.728H602.282V35.56ZM606.458 32.072C604.922 32.072 603.466 30.792 603.466 28.872V28.84C603.466 26.952 604.922 25.656 606.458 25.656C608.026 25.656 609.37 26.904 609.37 28.856V28.888C609.37 30.888 608.058 32.072 606.458 32.072ZM616.683 33.192C619.179 33.192 621.019 31.208 621.019 28.872V28.84C621.019 26.504 619.195 24.552 616.715 24.552C614.219 24.552 612.395 26.536 612.395 28.872V28.904C612.395 31.24 614.203 33.192 616.683 33.192ZM616.715 32.088C614.971 32.088 613.659 30.648 613.659 28.872V28.84C613.659 27.096 614.891 25.64 616.683 25.64C618.427 25.64 619.755 27.096 619.755 28.872V28.904C619.755 30.648 618.507 32.088 616.715 32.088ZM628.256 33H629.52V29.048H632.24C634.624 29.048 636.64 27.8 636.64 25.384V25.352C636.64 23.144 634.976 21.8 632.448 21.8H628.256V33ZM629.52 27.896V22.968H632.352C634.16 22.968 635.36 23.8 635.36 25.4V25.432C635.36 26.904 634.144 27.896 632.288 27.896H629.52ZM638.735 33H639.967V29.704C639.967 27.208 641.439 25.912 643.247 25.912H643.343V24.584C641.775 24.52 640.575 25.512 639.967 26.888V24.728H638.735V33ZM645.252 22.92H646.66V21.56H645.252V22.92ZM645.332 33H646.564V24.728H645.332V33ZM649.423 33H650.655V28.28C650.655 26.76 651.647 25.672 652.959 25.672C654.271 25.672 655.087 26.584 655.087 28.136V33H656.303V28.232C656.303 26.6 657.343 25.672 658.591 25.672C659.935 25.672 660.735 26.568 660.735 28.168V33H661.967V27.88C661.967 25.832 660.799 24.552 658.895 24.552C657.455 24.552 656.575 25.288 655.983 26.2C655.535 25.272 654.671 24.552 653.327 24.552C651.935 24.552 651.199 25.304 650.655 26.12V24.728H649.423V33ZM668.418 33.192C670.914 33.192 672.754 31.208 672.754 28.872V28.84C672.754 26.504 670.93 24.552 668.45 24.552C665.954 24.552 664.13 26.536 664.13 28.872V28.904C664.13 31.24 665.938 33.192 668.418 33.192ZM668.45 32.088C666.706 32.088 665.394 30.648 665.394 28.872V28.84C665.394 27.096 666.626 25.64 668.418 25.64C670.162 25.64 671.49 27.096 671.49 28.872V28.904C671.49 30.648 670.242 32.088 668.45 32.088Z" fill="black"/>
<path d="M702.324 29.464C703.476 29.464 704.42 28.536 704.42 27.384V27.352C704.42 26.2 703.428 25.272 702.324 25.272C701.204 25.272 700.228 26.2 700.228 27.352V27.384C700.228 28.536 701.172 29.464 702.324 29.464Z" fill="black"/>
<path d="M732.084 33H737.06C739.508 33 741.124 31.864 741.124 29.944V29.912C741.124 28.376 740.052 27.608 738.724 27.208C739.604 26.824 740.5 26.072 740.5 24.616V24.584C740.5 23.864 740.244 23.272 739.78 22.792C739.14 22.168 738.132 21.8 736.852 21.8H732.084V33ZM733.332 26.792V22.936H736.74C738.34 22.936 739.22 23.656 739.22 24.76V24.792C739.22 26.104 738.164 26.792 736.644 26.792H733.332ZM733.332 31.864V27.912H736.868C738.82 27.912 739.844 28.616 739.844 29.832V29.864C739.844 31.112 738.788 31.864 737.092 31.864H733.332ZM744.975 23.48H745.999L747.199 22.408L748.399 23.48H749.455L747.759 21.384H746.671L744.975 23.48ZM747.199 33.192C749.695 33.192 751.535 31.208 751.535 28.872V28.84C751.535 26.504 749.711 24.552 747.231 24.552C744.735 24.552 742.911 26.536 742.911 28.872V28.904C742.911 31.24 744.719 33.192 747.199 33.192ZM747.231 32.088C745.487 32.088 744.175 30.648 744.175 28.872V28.84C744.175 27.096 745.407 25.64 747.199 25.64C748.943 25.64 750.271 27.096 750.271 28.872V28.904C750.271 30.648 749.023 32.088 747.231 32.088ZM753.767 33H754.999V28.264C754.999 26.712 756.055 25.672 757.479 25.672C758.935 25.672 759.767 26.632 759.767 28.168V33H760.999V27.864C760.999 25.896 759.831 24.552 757.831 24.552C756.407 24.552 755.543 25.272 754.999 26.168V24.728H753.767V33ZM766.666 33.176C768.09 33.176 768.938 32.456 769.498 31.56V33H770.714V24.728H769.498V29.464C769.498 31.016 768.426 32.056 767.018 32.056C765.562 32.056 764.73 31.096 764.73 29.56V24.728H763.498V29.864C763.498 31.832 764.666 33.176 766.666 33.176ZM776.221 33.16C777.869 33.16 779.165 32.248 779.165 30.68V30.648C779.165 29.16 777.789 28.664 776.509 28.28C775.405 27.944 774.381 27.64 774.381 26.856V26.824C774.381 26.136 775.005 25.624 775.981 25.624C776.781 25.624 777.661 25.928 778.429 26.424L778.989 25.496C778.141 24.936 777.021 24.584 776.013 24.584C774.381 24.584 773.197 25.528 773.197 26.952V26.984C773.197 28.504 774.637 28.952 775.933 29.32C777.021 29.624 777.997 29.944 777.997 30.776V30.808C777.997 31.608 777.277 32.12 776.285 32.12C775.309 32.12 774.317 31.736 773.421 31.064L772.797 31.944C773.725 32.696 775.037 33.16 776.221 33.16ZM786.459 33H794.635V31.848H787.723V27.928H793.835V26.776H787.723V22.952H794.555V21.8H786.459V33ZM796.218 33H797.594L800.17 29.624L802.73 33H804.154L800.89 28.76L804.026 24.728H802.65L800.202 27.928L797.754 24.728H796.346L799.466 28.792L796.218 33ZM809.323 33.192C810.875 33.192 811.867 32.52 812.699 31.592L811.915 30.856C811.259 31.56 810.443 32.088 809.387 32.088C807.659 32.088 806.347 30.664 806.347 28.872V28.84C806.347 27.064 807.627 25.64 809.307 25.64C810.427 25.64 811.163 26.2 811.819 26.888L812.635 26.024C811.867 25.208 810.891 24.552 809.323 24.552C806.907 24.552 805.083 26.536 805.083 28.872V28.904C805.083 31.224 806.907 33.192 809.323 33.192ZM814.847 33H816.079V21.32H814.847V33ZM821.979 33.176C823.403 33.176 824.251 32.456 824.811 31.56V33H826.027V24.728H824.811V29.464C824.811 31.016 823.739 32.056 822.331 32.056C820.875 32.056 820.043 31.096 820.043 29.56V24.728H818.811V29.864C818.811 31.832 819.979 33.176 821.979 33.176ZM831.534 33.16C833.182 33.16 834.478 32.248 834.478 30.68V30.648C834.478 29.16 833.102 28.664 831.822 28.28C830.718 27.944 829.694 27.64 829.694 26.856V26.824C829.694 26.136 830.318 25.624 831.294 25.624C832.094 25.624 832.974 25.928 833.742 26.424L834.302 25.496C833.454 24.936 832.334 24.584 831.326 24.584C829.694 24.584 828.51 25.528 828.51 26.952V26.984C828.51 28.504 829.95 28.952 831.246 29.32C832.334 29.624 833.31 29.944 833.31 30.776V30.808C833.31 31.608 832.59 32.12 831.598 32.12C830.622 32.12 829.63 31.736 828.734 31.064L828.11 31.944C829.038 32.696 830.35 33.16 831.534 33.16ZM836.799 22.92H838.207V21.56H836.799V22.92ZM836.879 33H838.111V24.728H836.879V33ZM843.738 33.064H844.826L848.426 24.728H847.098L844.298 31.592L841.514 24.728H840.154L843.738 33.064ZM853.652 33.192C856.148 33.192 857.988 31.208 857.988 28.872V28.84C857.988 26.504 856.164 24.552 853.684 24.552C851.188 24.552 849.364 26.536 849.364 28.872V28.904C849.364 31.24 851.172 33.192 853.652 33.192ZM853.684 32.088C851.94 32.088 850.628 30.648 850.628 28.872V28.84C850.628 27.096 851.86 25.64 853.652 25.64C855.396 25.64 856.724 27.096 856.724 28.872V28.904C856.724 30.648 855.476 32.088 853.684 32.088ZM862.956 33.16C864.604 33.16 865.9 32.248 865.9 30.68V30.648C865.9 29.16 864.524 28.664 863.244 28.28C862.14 27.944 861.116 27.64 861.116 26.856V26.824C861.116 26.136 861.74 25.624 862.716 25.624C863.516 25.624 864.396 25.928 865.164 26.424L865.724 25.496C864.876 24.936 863.756 24.584 862.748 24.584C861.116 24.584 859.932 25.528 859.932 26.952V26.984C859.932 28.504 861.372 28.952 862.668 29.32C863.756 29.624 864.732 29.944 864.732 30.776V30.808C864.732 31.608 864.012 32.12 863.02 32.12C862.044 32.12 861.052 31.736 860.156 31.064L859.532 31.944C860.46 32.696 861.772 33.16 862.956 33.16Z" fill="black"/>
</svg>
